Processador_tb.vcd
$date
  Wed Jun 25 13:08:19 2025
$end
$version
  GHDL v0
$end
$timescale
  1 fs
$end
$scope module standard $end
$upscope $end
$scope module std_logic_1164 $end
$upscope $end
$scope module numeric_std $end
$upscope $end
$scope module processador_tb $end
$var reg 1 ! clk $end
$var reg 1 " reset $end
$scope module uut $end
$var reg 1 # clk $end
$var reg 1 $ reset $end
$var reg 7 % endereco_s[6:0] $end
$var reg 19 & dado_rom_s[18:0] $end
$var reg 7 ' input_inc_s[6:0] $end
$var reg 1 ( jump_en_s $end
$var reg 7 ) input_jump_s[6:0] $end
$var reg 1 * pc_write_s $end
$var reg 2 + opcode_ula[1:0] $end
$var reg 4 , reg_selector_s[3:0] $end
$var reg 2 - load_control_ac_s[1:0] $end
$var reg 1 . load_control_banco_s $end
$var reg 1 / cmpi_control_s $end
$var reg 11 0 load_value_s[10:0] $end
$var reg 1 1 wr_ac_enable_s $end
$var reg 1 2 wr_reg_enable_s $end
$var reg 16 3 ac_value_s[15:0] $end
$var reg 19 4 instr_out_s[18:0] $end
$var reg 4 5 opcode_s[3:0] $end
$var reg 8 6 endereco_signed[7:0] $end
$var reg 7 7 input_aux[6:0] $end
$var reg 8 8 input_unsigned[7:0] $end
$var reg 1 9 wr_ram_s $end
$var reg 16 : ram_value_s[15:0] $end
$var reg 16 ; reg_value_s[15:0] $end
$var reg 1 < flag_zero_in_s $end
$var reg 1 = flag_carry_in_sub_s $end
$var reg 1 > flag_carry_in_add_s $end
$var reg 1 ? flag_zero_out_s $end
$var reg 1 @ flag_carry_out_sub_s $end
$var reg 1 A flag_carry_out_add_s $end
$scope module pc_inst $end
$var reg 1 B clk $end
$var reg 1 C reset $end
$var reg 1 D wr_enable $end
$var reg 1 E seletor $end
$var reg 7 F input_inc[6:0] $end
$var reg 7 G input_jump[6:0] $end
$var reg 7 H pc_out[6:0] $end
$var reg 16 I ent1_ext[15:0] $end
$var reg 16 J ent2_ext[15:0] $end
$var reg 16 K mux_out[15:0] $end
$var reg 16 L reg_out[15:0] $end
$scope module mux_inst $end
$var reg 16 M ent1[15:0] $end
$var reg 16 N ent2[15:0] $end
$var reg 1 O selector_key $end
$var reg 16 P result[15:0] $end
$upscope $end
$scope module reg_inst $end
$var reg 1 Q clk $end
$var reg 16 R input[15:0] $end
$var reg 1 S wr_enable $end
$var reg 1 T reset $end
$var reg 16 U output[15:0] $end
$var reg 16 V data[15:0] $end
$upscope $end
$upscope $end
$scope module rom_inst $end
$var reg 1 W clk $end
$var reg 7 X endereco[6:0] $end
$var reg 19 Y dado[18:0] $end
$upscope $end
$scope module ram_inst $end
$var reg 1 Z clk $end
$var reg 7 [ endereco[6:0] $end
$var reg 1 \ wr_en $end
$var reg 16 ] dado_in[15:0] $end
$var reg 16 ^ dado_out[15:0] $end
$comment conteudo_ram is not handled $end
$upscope $end
$scope module somador_inst $end
$var reg 7 _ entrada[6:0] $end
$var reg 7 ` saida[6:0] $end
$upscope $end
$scope module reg_instr $end
$var reg 1 a clk $end
$var reg 19 b input[18:0] $end
$var reg 1 c wr_enable $end
$var reg 1 d reset $end
$var reg 19 e output[18:0] $end
$var reg 19 f data[18:0] $end
$upscope $end
$scope module uc_inst $end
$var reg 19 g instr[18:0] $end
$var reg 1 h reset $end
$var reg 1 i flag_zero_in $end
$var reg 1 j flag_carry_in_sub $end
$var reg 1 k flag_carry_in_add $end
$var reg 1 l clk $end
$var reg 1 m flag_zero_out $end
$var reg 1 n flag_carry_out_sub $end
$var reg 1 o flag_carry_out_add $end
$var reg 1 p jump_en $end
$var reg 1 q pc_write $end
$var reg 2 r load_control_ac[1:0] $end
$var reg 1 s load_control_banco $end
$var reg 1 t cmpi_control $end
$var reg 1 u wr_ac_enable $end
$var reg 1 v wr_reg_enable $end
$var reg 1 w wr_ram $end
$var reg 1 x flag_zero_reg $end
$var reg 1 y flag_carry_add_reg $end
$var reg 1 z flag_carry_sub_reg $end
$var reg 4 { opcode[3:0] $end
$var reg 1 | reset_flags $end
$var reg 2 } state[1:0] $end
$var reg 1 !" wr_enable_flags $end
$scope module inst_fsm $end
$var reg 1 "" clk $end
$var reg 1 #" reset $end
$var reg 2 $" estado[1:0] $end
$var reg 2 %" estado_s[1:0] $end
$upscope $end
$scope module flag_zero_ffp $end
$var reg 1 &" clk $end
$var reg 1 '" input $end
$var reg 1 (" wr_enable $end
$var reg 1 )" reset $end
$var reg 1 *" output $end
$var reg 1 +" data $end
$upscope $end
$scope module flag_carry_sub_ffp $end
$var reg 1 ," clk $end
$var reg 1 -" input $end
$var reg 1 ." wr_enable $end
$var reg 1 /" reset $end
$var reg 1 0" output $end
$var reg 1 1" data $end
$upscope $end
$scope module flag_carry_add_ffp $end
$var reg 1 2" clk $end
$var reg 1 3" input $end
$var reg 1 4" wr_enable $end
$var reg 1 5" reset $end
$var reg 1 6" output $end
$var reg 1 7" data $end
$upscope $end
$upscope $end
$scope module banco_ula $end
$var reg 1 8" clk $end
$var reg 2 9" op_code[1:0] $end
$var reg 4 :" reg_selector[3:0] $end
$var reg 1 ;" load_control_banco $end
$var reg 2 <" load_control_ac[1:0] $end
$var reg 1 =" cmpi_control $end
$var reg 11 >" load_value[10:0] $end
$var reg 16 ?" ram_value[15:0] $end
$var reg 1 @" wr_reg_enable $end
$var reg 1 A" wr_ac_enable $end
$var reg 1 B" reset $end
$var reg 1 C" flag_carry_in_sub $end
$var reg 1 D" flag_carry_in_add $end
$var reg 1 E" flag_zero $end
$var reg 1 F" flag_carry_out_add $end
$var reg 1 G" flag_carry_out_sub $end
$var reg 16 H" ac_value[15:0] $end
$var reg 16 I" reg_value[15:0] $end
$var reg 16 J" out_banco[15:0] $end
$var reg 16 K" dado_ula[15:0] $end
$var reg 16 L" ac_out[15:0] $end
$var reg 16 M" in_banco[15:0] $end
$var reg 16 N" in_ac[15:0] $end
$var reg 16 O" in_ula[15:0] $end
$var reg 16 P" load_value_16[15:0] $end
$scope module mux_banco $end
$var reg 16 Q" ent1[15:0] $end
$var reg 16 R" ent2[15:0] $end
$var reg 1 S" selector_key $end
$var reg 16 T" result[15:0] $end
$upscope $end
$scope module mux_ac $end
$var reg 16 U" ent1[15:0] $end
$var reg 16 V" ent2[15:0] $end
$var reg 16 W" ent3[15:0] $end
$var reg 16 X" ent4[15:0] $end
$var reg 2 Y" selector_key[1:0] $end
$var reg 16 Z" result[15:0] $end
$upscope $end
$scope module mux_ula $end
$var reg 16 [" ent1[15:0] $end
$var reg 16 \" ent2[15:0] $end
$var reg 1 ]" selector_key $end
$var reg 16 ^" result[15:0] $end
$upscope $end
$scope module banco $end
$var reg 4 _" selector[3:0] $end
$var reg 1 `" clk $end
$var reg 16 a" reg_wr[15:0] $end
$var reg 1 b" wr_enable $end
$var reg 1 c" reset $end
$var reg 16 d" reg_out[15:0] $end
$var reg 9 e" we_aux[8:0] $end
$comment reg_aux is not handled $end
$scope module demux $end
$var reg 4 f" selector[3:0] $end
$var reg 1 g" enable_in $end
$var reg 9 h" we[8:0] $end
$upscope $end
$scope module r0 $end
$var reg 1 i" clk $end
$var reg 16 j" input[15:0] $end
$var reg 1 k" wr_enable $end
$var reg 1 l" reset $end
$var reg 16 m" output[15:0] $end
$var reg 16 n" data[15:0] $end
$upscope $end
$scope module r1 $end
$var reg 1 o" clk $end
$var reg 16 p" input[15:0] $end
$var reg 1 q" wr_enable $end
$var reg 1 r" reset $end
$var reg 16 s" output[15:0] $end
$var reg 16 t" data[15:0] $end
$upscope $end
$scope module r2 $end
$var reg 1 u" clk $end
$var reg 16 v" input[15:0] $end
$var reg 1 w" wr_enable $end
$var reg 1 x" reset $end
$var reg 16 y" output[15:0] $end
$var reg 16 z" data[15:0] $end
$upscope $end
$scope module r3 $end
$var reg 1 {" clk $end
$var reg 16 |" input[15:0] $end
$var reg 1 }" wr_enable $end
$var reg 1 !# reset $end
$var reg 16 "# output[15:0] $end
$var reg 16 ## data[15:0] $end
$upscope $end
$scope module r4 $end
$var reg 1 $# clk $end
$var reg 16 %# input[15:0] $end
$var reg 1 &# wr_enable $end
$var reg 1 '# reset $end
$var reg 16 (# output[15:0] $end
$var reg 16 )# data[15:0] $end
$upscope $end
$scope module r5 $end
$var reg 1 *# clk $end
$var reg 16 +# input[15:0] $end
$var reg 1 ,# wr_enable $end
$var reg 1 -# reset $end
$var reg 16 .# output[15:0] $end
$var reg 16 /# data[15:0] $end
$upscope $end
$scope module r6 $end
$var reg 1 0# clk $end
$var reg 16 1# input[15:0] $end
$var reg 1 2# wr_enable $end
$var reg 1 3# reset $end
$var reg 16 4# output[15:0] $end
$var reg 16 5# data[15:0] $end
$upscope $end
$scope module r7 $end
$var reg 1 6# clk $end
$var reg 16 7# input[15:0] $end
$var reg 1 8# wr_enable $end
$var reg 1 9# reset $end
$var reg 16 :# output[15:0] $end
$var reg 16 ;# data[15:0] $end
$upscope $end
$scope module r8 $end
$var reg 1 <# clk $end
$var reg 16 =# input[15:0] $end
$var reg 1 ># wr_enable $end
$var reg 1 ?# reset $end
$var reg 16 @# output[15:0] $end
$var reg 16 A# data[15:0] $end
$upscope $end
$scope module mux $end
$var reg 4 B# selector[3:0] $end
$var reg 16 C# x0[15:0] $end
$var reg 16 D# x1[15:0] $end
$var reg 16 E# x2[15:0] $end
$var reg 16 F# x3[15:0] $end
$var reg 16 G# x4[15:0] $end
$var reg 16 H# x5[15:0] $end
$var reg 16 I# x6[15:0] $end
$var reg 16 J# x7[15:0] $end
$var reg 16 K# x8[15:0] $end
$var reg 16 L# result[15:0] $end
$upscope $end
$upscope $end
$scope module ula_inst $end
$var reg 1 M# clk $end
$var reg 16 N# ent1[15:0] $end
$var reg 16 O# ac[15:0] $end
$var reg 2 P# op_code[1:0] $end
$var reg 1 Q# flag_carry_in_sub $end
$var reg 1 R# flag_carry_out_sub $end
$var reg 1 S# flag_carry_in_add $end
$var reg 1 T# flag_carry_out_add $end
$var reg 1 U# flag_zero_out $end
$var reg 16 V# res[15:0] $end
$var reg 16 W# soma[15:0] $end
$var reg 16 X# sub[15:0] $end
$var reg 16 Y# mux_out[15:0] $end
$var reg 16 Z# and_op[15:0] $end
$var reg 17 [# result_carry_add[16:0] $end
$var reg 17 \# result_carry_sub[16:0] $end
$var reg 16 ]# carry_add_16[15:0] $end
$var reg 16 ^# carry_sub_16[15:0] $end
$scope module mux $end
$var reg 16 _# ent1[15:0] $end
$var reg 16 `# ent2[15:0] $end
$var reg 16 a# ent3[15:0] $end
$var reg 16 b# ent4[15:0] $end
$var reg 2 c# selector_key[1:0] $end
$var reg 16 d# result[15:0] $end
$upscope $end
$upscope $end
$scope module acumulador $end
$var reg 1 e# clk $end
$var reg 16 f# input[15:0] $end
$var reg 1 g# wr_enable $end
$var reg 1 h# reset $end
$var reg 16 i# output[15:0] $end
$var reg 16 j# data[15:0] $end
$upscope $end
$upscope $end
$upscope $end
$upscope $end
$enddefinitions $end
#0
0!
1"
0#
1$
b0000000 %
bUUUUUUUUUUUUUUUUUUU &
b0000001 '
0(
b0000000 )
0*
b00 +
b0000 ,
b00 -
0.
0/
b00000000000 0
01
02
b0000000000000000 3
b0000000000000000000 4
b0000 5
b00000000 6
b0000000 7
b00000000 8
09
bUUUUUUUUUUUUUUUU :
b0000000000000000 ;
1<
0=
0>
0?
0@
0A
0B
1C
0D
0E
b0000001 F
b0000000 G
b0000000 H
b0000000000000001 I
b0000000000000000 J
b0000000000000001 K
b0000000000000000 L
b0000000000000001 M
b0000000000000000 N
0O
b0000000000000001 P
0Q
b0000000000000001 R
0S
1T
b0000000000000000 U
b0000000000000000 V
0W
b0000000 X
bUUUUUUUUUUUUUUUUUUU Y
0Z
b0000000 [
0\
b0000000000000000 ]
bUUUUUUUUUUUUUUUU ^
b0000000 _
b0000001 `
0a
bUUUUUUUUUUUUUUUUUUU b
1c
1d
b0000000000000000000 e
b0000000000000000000 f
b0000000000000000000 g
1h
1i
0j
0k
0l
0m
0n
0o
0p
0q
b00 r
0s
0t
0u
0v
0w
0x
0y
0z
b0000 {
0|
b00 }
0!"
0""
1#"
b00 $"
b00 %"
0&"
1'"
0("
0)"
0*"
0+"
0,"
0-"
0."
0/"
00"
01"
02"
03"
04"
05"
06"
07"
08"
b00 9"
b0000 :"
0;"
b00 <"
0="
b00000000000 >"
bUUUUUUUUUUUUUUUU ?"
0@"
0A"
1B"
0C"
0D"
1E"
0F"
0G"
b0000000000000000 H"
b0000000000000000 I"
b0000000000000000 J"
b0000000000000000 K"
b0000000000000000 L"
b0000000000000000 M"
b0000000000000000 N"
b0000000000000000 O"
b0000000000000000 P"
b0000000000000000 Q"
b0000000000000000 R"
0S"
b0000000000000000 T"
b0000000000000000 U"
b0000000000000000 V"
b0000000000000000 W"
bUUUUUUUUUUUUUUUU X"
b00 Y"
b0000000000000000 Z"
b0000000000000000 ["
b0000000000000000 \"
0]"
b0000000000000000 ^"
b0000 _"
0`"
b0000000000000000 a"
0b"
1c"
b0000000000000000 d"
b000000000 e"
b0000 f"
0g"
b000000000 h"
0i"
b0000000000000000 j"
0k"
1l"
b0000000000000000 m"
b0000000000000000 n"
0o"
b0000000000000000 p"
0q"
1r"
b0000000000000000 s"
b0000000000000000 t"
0u"
b0000000000000000 v"
0w"
1x"
b0000000000000000 y"
b0000000000000000 z"
0{"
b0000000000000000 |"
0}"
1!#
b0000000000000000 "#
b0000000000000000 ##
0$#
b0000000000000000 %#
0&#
1'#
b0000000000000000 (#
b0000000000000000 )#
0*#
b0000000000000000 +#
0,#
1-#
b0000000000000000 .#
b0000000000000000 /#
00#
b0000000000000000 1#
02#
13#
b0000000000000000 4#
b0000000000000000 5#
06#
b0000000000000000 7#
08#
19#
b0000000000000000 :#
b0000000000000000 ;#
0<#
b0000000000000000 =#
0>#
1?#
b0000000000000000 @#
b0000000000000000 A#
b0000 B#
b0000000000000000 C#
b0000000000000000 D#
b0000000000000000 E#
b0000000000000000 F#
b0000000000000000 G#
b0000000000000000 H#
b0000000000000000 I#
b0000000000000000 J#
b0000000000000000 K#
b0000000000000000 L#
0M#
b0000000000000000 N#
b0000000000000000 O#
b00 P#
0Q#
0R#
0S#
0T#
1U#
b0000000000000000 V#
b0000000000000000 W#
b0000000000000000 X#
b0000000000000000 Y#
b0000000000000000 Z#
b00000000000000000 [#
b00000000000000000 \#
b0000000000000000 ]#
b0000000000000000 ^#
b0000000000000000 _#
b0000000000000000 `#
b0000000000000000 a#
b0000000000000000 b#
b00 c#
b0000000000000000 d#
0e#
b0000000000000000 f#
0g#
1h#
b0000000000000000 i#
b0000000000000000 j#
#5000000
1!
0"
1#
0$
b0100000000000000001 &
bUU +
bUUUU ,
bUUUUUUUUUUU 0
bUUUUUUUUUUUUUUUUUUU 4
bUUUU 5
bXXXXXXX 7
bXXXXXXXX 8
1B
0C
1Q
0T
1W
b0100000000000000001 Y
1Z
1a
b0100000000000000001 b
0d
bUUUUUUUUUUUUUUUUUUU e
bUUUUUUUUUUUUUUUUUUU f
bUUUUUUUUUUUUUUUUUUU g
0h
1l
bUUUU {
b01 }
U!"
1""
0#"
b01 $"
b01 %"
1&"
U("
1,"
U."
12"
U4"
18"
bUU 9"
bUUUU :"
bUUUUUUUUUUU >"
0B"
b00000UUUUUUUUUUU P"
b00000UUUUUUUUUUU R"
b00000UUUUUUUUUUU V"
b00000UUUUUUUUUUU \"
bUUUU _"
1`"
0c"
bUUUU f"
1i"
0l"
1o"
0r"
1u"
0x"
1{"
0!#
1$#
0'#
1*#
0-#
10#
03#
16#
09#
1<#
0?#
bUUUU B#
1M#
bUU P#
bUU c#
1e#
0h#
#10000000
0!
0#
0B
0Q
0W
0Z
0a
0l
0""
0&"
0,"
02"
08"
0`"
0i"
0o"
0u"
0{"
0$#
0*#
00#
06#
0<#
0M#
0e#
#15000000
1!
1#
b10 +
b0000 ,
b01 -
b00000000001 0
11
b0100000000000000001 4
b0100 5
b0000000 7
b00000000 8
1B
1Q
1W
1Z
1a
b0100000000000000001 e
b0100000000000000001 f
b0100000000000000001 g
1l
b01 r
1u
b0100 {
b10 }
0!"
1""
b10 $"
b10 %"
1&"
0("
1,"
0."
12"
04"
18"
b10 9"
b0000 :"
b01 <"
b00000000001 >"
1A"
b0000000000000001 N"
b0000000000000001 P"
b0000000000000001 R"
b0000000000000001 V"
b01 Y"
b0000000000000001 Z"
b0000000000000001 \"
b0000 _"
1`"
b0000 f"
1i"
1o"
1u"
1{"
1$#
1*#
10#
16#
1<#
b0000 B#
1M#
b10 P#
b10 c#
1e#
b0000000000000001 f#
1g#
#20000000
0!
0#
0B
0Q
0W
0Z
0a
0l
0""
0&"
0,"
02"
08"
0`"
0i"
0o"
0u"
0{"
0$#
0*#
00#
06#
0<#
0M#
0e#
#25000000
1!
1#
1*
01
b0000000000000001 3
1B
1D
1Q
1S
1W
1Z
b0000000000000001 ]
1a
1l
1q
0u
b11 }
1""
b11 $"
b11 %"
1&"
1,"
12"
18"
0A"
b0000000000000001 H"
b0000000000000001 L"
b0000000000000001 M"
b0000000000000001 Q"
b0000000000000001 T"
1`"
b0000000000000001 a"
1i"
b0000000000000001 j"
1o"
b0000000000000001 p"
1u"
b0000000000000001 v"
1{"
b0000000000000001 |"
1$#
b0000000000000001 %#
1*#
b0000000000000001 +#
10#
b0000000000000001 1#
16#
b0000000000000001 7#
1<#
b0000000000000001 =#
1M#
b0000000000000001 O#
b0000000000000001 W#
b0000000000000001 X#
b00000000000000001 [#
b00000000000000001 \#
b0000000000000001 _#
b0000000000000001 `#
b0000000000000001 b#
1e#
0g#
b0000000000000001 i#
b0000000000000001 j#
#30000000
0!
0#
0B
0Q
0W
0Z
0a
0l
0""
0&"
0,"
02"
08"
0`"
0i"
0o"
0u"
0{"
0$#
0*#
00#
06#
0<#
0M#
0e#
#35000000
1!
1#
b0000001 %
b0000010 '
0*
b00000001 6
b0000001 7
b00000001 8
1B
0D
b0000010 F
b0000001 H
b0000000000000010 I
b0000000000000010 K
b0000000000000001 L
b0000000000000010 M
b0000000000000010 P
1Q
b0000000000000010 R
0S
b0000000000000001 U
b0000000000000001 V
1W
b0000001 X
1Z
b0000001 _
b0000010 `
1a
1l
0q
b00 }
1""
b00 $"
b00 %"
1&"
1,"
12"
18"
1`"
1i"
1o"
1u"
1{"
1$#
1*#
10#
16#
1<#
1M#
1e#
#40000000
0!
0#
0B
0Q
0W
0Z
0a
0l
0""
0&"
0,"
02"
08"
0`"
0i"
0o"
0u"
0{"
0$#
0*#
00#
06#
0<#
0M#
0e#
#45000000
1!
1#
b1100000100000000000 &
1B
1Q
1W
b1100000100000000000 Y
1Z
1a
b1100000100000000000 b
1l
b01 }
1""
b01 $"
b01 %"
1&"
1,"
12"
18"
1`"
1i"
1o"
1u"
1{"
1$#
1*#
10#
16#
1<#
1M#
1e#
#50000000
0!
0#
0B
0Q
0W
0Z
0a
0l
0""
0&"
0,"
02"
08"
0`"
0i"
0o"
0u"
0{"
0$#
0*#
00#
06#
0<#
0M#
0e#
#55000000
1!
1#
b0001 ,
b00 -
b00000000000 0
01
12
b1100000100000000000 4
b1100 5
b0010001 7
b00010001 8
1B
1Q
1W
1Z
1a
b1100000100000000000 e
b1100000100000000000 f
b1100000100000000000 g
1l
b00 r
0u
1v
b1100 {
b10 }
1""
b10 $"
b10 %"
1&"
1,"
12"
18"
b0001 :"
b00 <"
b00000000000 >"
1@"
0A"
b0000000000000000 N"
b0000000000000000 P"
b0000000000000000 R"
b0000000000000000 V"
b00 Y"
b0000000000000000 Z"
b0000000000000000 \"
b0001 _"
1`"
1b"
b000000010 e"
b0001 f"
1g"
b000000010 h"
1i"
1o"
1q"
1u"
1{"
1$#
1*#
10#
16#
1<#
b0001 B#
1M#
1e#
b0000000000000000 f#
0g#
#60000000
0!
0#
0B
0Q
0W
0Z
0a
0l
0""
0&"
0,"
02"
08"
0`"
0i"
0o"
0u"
0{"
0$#
0*#
00#
06#
0<#
0M#
0e#
#65000000
1!
1#
1*
02
b0000000000000001 ;
0<
1B
1D
1Q
1S
1W
1Z
b0000001 [
1a
0i
1l
1q
0v
b11 }
1""
b11 $"
b11 %"
1&"
0'"
1,"
12"
18"
0@"
0E"
b0000000000000001 I"
b0000000000000001 J"
b0000000000000001 K"
b0000000000000001 N"
b0000000000000001 O"
b0000000000000001 U"
b0000000000000001 W"
b0000000000000001 Z"
b0000000000000001 ["
b0000000000000001 ^"
1`"
0b"
b0000000000000001 d"
b000000000 e"
0g"
b000000000 h"
1i"
1o"
0q"
b0000000000000001 s"
b0000000000000001 t"
1u"
1{"
1$#
1*#
10#
16#
1<#
b0000000000000001 D#
b0000000000000001 L#
1M#
b0000000000000001 N#
0U#
b0000000000000001 V#
b0000000000000010 W#
b0000000000000000 X#
b0000000000000001 Y#
b0000000000000001 Z#
b00000000000000010 [#
b00000000000000000 \#
b0000000000000010 _#
b0000000000000000 `#
b0000000000000001 a#
b0000000000000001 d#
1e#
b0000000000000001 f#
#70000000
0!
0#
0B
0Q
0W
0Z
0a
0l
0""
0&"
0,"
02"
08"
0`"
0i"
0o"
0u"
0{"
0$#
0*#
00#
06#
0<#
0M#
0e#
#75000000
1!
1#
b0000010 %
b0000011 '
0*
b00000010 6
b0010010 7
b00010010 8
1B
0D
b0000011 F
b0000010 H
b0000000000000011 I
b0000000000000011 K
b0000000000000010 L
b0000000000000011 M
b0000000000000011 P
1Q
b0000000000000011 R
0S
b0000000000000010 U
b0000000000000010 V
1W
b0000010 X
1Z
b0000010 _
b0000011 `
1a
1l
0q
b00 }
1""
b00 $"
b00 %"
1&"
1,"
12"
18"
1`"
1i"
1o"
1u"
1{"
1$#
1*#
10#
16#
1<#
1M#
1e#
#80000000
0!
0#
0B
0Q
0W
0Z
0a
0l
0""
0&"
0,"
02"
08"
0`"
0i"
0o"
0u"
0{"
0$#
0*#
00#
06#
0<#
0M#
0e#
#85000000
1!
1#
b0000000100000000010 &
1B
1Q
1W
b0000000100000000010 Y
1Z
1a
b0000000100000000010 b
1l
b01 }
1""
b01 $"
b01 %"
1&"
1,"
12"
18"
1`"
1i"
1o"
1u"
1{"
1$#
1*#
10#
16#
1<#
1M#
1e#
#90000000
0!
0#
0B
0Q
0W
0Z
0a
0l
0""
0&"
0,"
02"
08"
0`"
0i"
0o"
0u"
0{"
0$#
0*#
00#
06#
0<#
0M#
0e#
#95000000
1!
1#
b00 +
b00000000010 0
02
b0000000100000000010 4
b0000 5
1B
1Q
1W
1Z
1a
b0000000100000000010 e
b0000000100000000010 f
b0000000100000000010 g
1l
0v
b0000 {
b10 }
1""
b10 $"
b10 %"
1&"
1,"
12"
18"
b00 9"
b00000000010 >"
0@"
b0000000000000010 K"
b0000000000000010 N"
b0000000000000010 P"
b0000000000000010 R"
b0000000000000010 U"
b0000000000000010 V"
b0000000000000010 Z"
b0000000000000010 \"
1`"
0b"
b000000000 e"
0g"
b000000000 h"
1i"
1o"
0q"
1u"
1{"
1$#
1*#
10#
16#
1<#
1M#
b00 P#
b0000000000000010 V#
b0000000000000010 Y#
b00 c#
b0000000000000010 d#
1e#
b0000000000000010 f#
#100000000
0!
0#
0B
0Q
0W
0Z
0a
0l
0""
0&"
0,"
02"
08"
0`"
0i"
0o"
0u"
0{"
0$#
0*#
00#
06#
0<#
0M#
0e#
#105000000
1!
1#
1*
19
1B
1D
1Q
1S
1W
1Z
1\
1a
1l
1q
1w
b11 }
1""
b11 $"
b11 %"
1&"
1,"
12"
18"
1`"
1i"
1o"
1u"
1{"
1$#
1*#
10#
16#
1<#
1M#
1e#
#110000000
0!
0#
0B
0Q
0W
0Z
0a
0l
0""
0&"
0,"
02"
08"
0`"
0i"
0o"
0u"
0{"
0$#
0*#
00#
06#
0<#
0M#
0e#
#115000000
1!
1#
b0000011 %
b0000100 '
0*
b00000011 6
b0010011 7
b00010011 8
09
b0000000000000001 :
1B
0D
b0000100 F
b0000011 H
b0000000000000100 I
b0000000000000100 K
b0000000000000011 L
b0000000000000100 M
b0000000000000100 P
1Q
b0000000000000100 R
0S
b0000000000000011 U
b0000000000000011 V
1W
b0000011 X
1Z
0\
b0000000000000001 ^
b0000011 _
b0000100 `
1a
1l
0q
0w
b00 }
1""
b00 $"
b00 %"
1&"
1,"
12"
18"
b0000000000000001 ?"
b0000000000000001 X"
1`"
1i"
1o"
1u"
1{"
1$#
1*#
10#
16#
1<#
1M#
1e#
#120000000
0!
0#
0B
0Q
0W
0Z
0a
0l
0""
0&"
0,"
02"
08"
0`"
0i"
0o"
0u"
0{"
0$#
0*#
00#
06#
0<#
0M#
0e#
#125000000
1!
1#
b1001000000000000001 &
1B
1Q
1W
b1001000000000000001 Y
1Z
1a
b1001000000000000001 b
1l
b01 }
1""
b01 $"
b01 %"
1&"
1,"
12"
18"
1`"
1i"
1o"
1u"
1{"
1$#
1*#
10#
16#
1<#
1M#
1e#
#130000000
0!
0#
0B
0Q
0W
0Z
0a
0l
0""
0&"
0,"
02"
08"
0`"
0i"
0o"
0u"
0{"
0$#
0*#
00#
06#
0<#
0M#
0e#
#135000000
1!
1#
b0000 ,
b00 -
1/
b00000000001 0
11
b1001000000000000001 4
b1001 5
b0000011 7
b00000011 8
bUUUUUUUUUUUUUUUU :
b0000000000000000 ;
1B
1Q
1W
1Z
b0000000 [
bUUUUUUUUUUUUUUUU ^
1a
b1001000000000000001 e
b1001000000000000001 f
b1001000000000000001 g
1l
b00 r
1t
1u
b1001 {
b10 }
1!"
1""
b10 $"
b10 %"
1&"
1("
1,"
1."
12"
14"
18"
b0000 :"
b00 <"
1="
b00000000001 >"
bUUUUUUUUUUUUUUUU ?"
1A"
b0000000000000000 I"
b0000000000000000 J"
b0000000000000010 N"
b0000000000000001 P"
b0000000000000001 R"
b0000000000000001 V"
b0000000000000000 W"
bUUUUUUUUUUUUUUUU X"
b00 Y"
b0000000000000010 Z"
b0000000000000000 ["
b0000000000000001 \"
1]"
b0000 _"
1`"
b0000000000000000 d"
b0000 f"
1i"
1o"
1u"
1{"
1$#
1*#
10#
16#
1<#
b0000 B#
b0000000000000000 L#
1M#
1e#
b0000000000000010 f#
1g#
#140000000
0!
0#
0B
0Q
0W
0Z
0a
0l
0""
0&"
0,"
02"
08"
0`"
0i"
0o"
0u"
0{"
0$#
0*#
00#
06#
0<#
0M#
0e#
#145000000
1!
1#
1*
01
b0000000000000010 3
1B
1D
1Q
1S
1W
1Z
b0000000000000010 ]
1a
1l
1q
0u
b11 }
1""
b11 $"
b11 %"
1&"
1,"
12"
18"
0A"
b0000000000000010 H"
b0000000000000011 K"
b0000000000000010 L"
b0000000000000010 M"
b0000000000000011 N"
b0000000000000010 Q"
b0000000000000010 T"
b0000000000000011 U"
b0000000000000011 Z"
1`"
b0000000000000010 a"
1i"
b0000000000000010 j"
1o"
b0000000000000010 p"
1u"
b0000000000000010 v"
1{"
b0000000000000010 |"
1$#
b0000000000000010 %#
1*#
b0000000000000010 +#
10#
b0000000000000010 1#
16#
b0000000000000010 7#
1<#
b0000000000000010 =#
1M#
b0000000000000010 O#
b0000000000000011 V#
b0000000000000011 W#
b0000000000000001 X#
b0000000000000011 Y#
b0000000000000000 Z#
b00000000000000011 [#
b00000000000000001 \#
b0000000000000011 _#
b0000000000000001 `#
b0000000000000000 a#
b0000000000000010 b#
b0000000000000011 d#
1e#
b0000000000000011 f#
0g#
b0000000000000010 i#
b0000000000000010 j#
#150000000
0!
0#
0B
0Q
0W
0Z
0a
0l
0""
0&"
0,"
02"
08"
0`"
0i"
0o"
0u"
0{"
0$#
0*#
00#
06#
0<#
0M#
0e#
#155000000
1!
1#
b0000100 %
b0000101 '
0*
b00000100 6
b0000100 7
b00000100 8
1B
0D
b0000101 F
b0000100 H
b0000000000000101 I
b0000000000000101 K
b0000000000000100 L
b0000000000000101 M
b0000000000000101 P
1Q
b0000000000000101 R
0S
b0000000000000100 U
b0000000000000100 V
1W
b0000100 X
1Z
b0000100 _
b0000101 `
1a
1l
0q
b00 }
1""
b00 $"
b00 %"
1&"
1,"
12"
18"
1`"
1i"
1o"
1u"
1{"
1$#
1*#
10#
16#
1<#
1M#
1e#
#160000000
0!
0#
0B
0Q
0W
0Z
0a
0l
0""
0&"
0,"
02"
08"
0`"
0i"
0o"
0u"
0{"
0$#
0*#
00#
06#
0<#
0M#
0e#
#165000000
1!
1#
b1111000000000100001 &
1B
1Q
1W
b1111000000000100001 Y
1Z
1a
b1111000000000100001 b
1l
b01 }
1""
b01 $"
b01 %"
1&"
1,"
12"
18"
1`"
1i"
1o"
1u"
1{"
1$#
1*#
10#
16#
1<#
1M#
1e#
#170000000
0!
0#
0B
0Q
0W
0Z
0a
0l
0""
0&"
0,"
02"
08"
0`"
0i"
0o"
0u"
0{"
0$#
0*#
00#
06#
0<#
0M#
0e#
#175000000
1!
1#
b11 +
b00000100001 0
01
b1111000000000100001 4
b1111 5
1=
1B
1Q
1W
1Z
1a
b1111000000000100001 e
b1111000000000100001 f
b1111000000000100001 g
1j
1l
0u
b1111 {
b10 }
1""
b10 $"
b10 %"
1&"
1,"
1-"
12"
18"
b11 9"
b00000100001 >"
0A"
1G"
b0000000000000010 K"
b0000000000000010 N"
b0000000000100001 O"
b0000000000100001 P"
b0000000000100001 R"
b0000000000000010 U"
b0000000000100001 V"
b0000000000000010 Z"
b0000000000100001 \"
b0000000000100001 ^"
1`"
1i"
1o"
1u"
1{"
1$#
1*#
10#
16#
1<#
1M#
b0000000000100001 N#
b11 P#
1R#
b0000000000000010 V#
b0000000000100011 W#
b1111111111100001 X#
b0000000000000010 Y#
b00000000000100011 [#
b11111111111100001 \#
b0000000000100011 _#
b1111111111100001 `#
b11 c#
b0000000000000010 d#
1e#
b0000000000000010 f#
0g#
