Processador_tb.vcd
$date
  Wed Jun 11 13:54:30 2025
$end
$version
  GHDL v0
$end
$timescale
  1 fs
$end
$scope module standard $end
$upscope $end
$scope module std_logic_1164 $end
$upscope $end
$scope module numeric_std $end
$upscope $end
$scope module processador_tb $end
$var reg 1 ! clk $end
$var reg 1 " reset $end
$scope module uut $end
$var reg 1 # clk $end
$var reg 1 $ reset $end
$var reg 7 % endereco_s[6:0] $end
$var reg 19 & dado_rom_s[18:0] $end
$var reg 7 ' input_inc_s[6:0] $end
$var reg 1 ( jump_en_s $end
$var reg 7 ) input_jump_s[6:0] $end
$var reg 1 * pc_write_s $end
$var reg 2 + opcode_ula[1:0] $end
$var reg 4 , reg_selector_s[3:0] $end
$var reg 2 - load_control_ac_s[1:0] $end
$var reg 1 . load_control_banco_s $end
$var reg 1 / cmpi_control_s $end
$var reg 11 0 load_value_s[10:0] $end
$var reg 1 1 wr_ac_enable_s $end
$var reg 1 2 wr_reg_enable_s $end
$var reg 16 3 ac_value_s[15:0] $end
$var reg 19 4 instr_out_s[18:0] $end
$var reg 4 5 opcode_s[3:0] $end
$var reg 8 6 endereco_signed[7:0] $end
$var reg 7 7 input_aux[6:0] $end
$var reg 8 8 input_unsigned[7:0] $end
$var reg 1 9 flag_zero_in_s $end
$var reg 1 : flag_carry_in_sub_s $end
$var reg 1 ; flag_carry_in_add_s $end
$var reg 1 < flag_zero_out_s $end
$var reg 1 = flag_carry_out_sub_s $end
$var reg 1 > flag_carry_out_add_s $end
$scope module pc_inst $end
$var reg 1 ? clk $end
$var reg 1 @ reset $end
$var reg 1 A wr_enable $end
$var reg 1 B seletor $end
$var reg 7 C input_inc[6:0] $end
$var reg 7 D input_jump[6:0] $end
$var reg 7 E pc_out[6:0] $end
$var reg 16 F ent1_ext[15:0] $end
$var reg 16 G ent2_ext[15:0] $end
$var reg 16 H mux_out[15:0] $end
$var reg 16 I reg_out[15:0] $end
$scope module mux_inst $end
$var reg 16 J ent1[15:0] $end
$var reg 16 K ent2[15:0] $end
$var reg 1 L selector_key $end
$var reg 16 M result[15:0] $end
$upscope $end
$scope module reg_inst $end
$var reg 1 N clk $end
$var reg 16 O input[15:0] $end
$var reg 1 P wr_enable $end
$var reg 1 Q reset $end
$var reg 16 R output[15:0] $end
$var reg 16 S data[15:0] $end
$upscope $end
$upscope $end
$scope module rom_inst $end
$var reg 1 T clk $end
$var reg 7 U endereco[6:0] $end
$var reg 19 V dado[18:0] $end
$upscope $end
$scope module somador_inst $end
$var reg 7 W entrada[6:0] $end
$var reg 7 X saida[6:0] $end
$upscope $end
$scope module reg_instr $end
$var reg 1 Y clk $end
$var reg 19 Z input[18:0] $end
$var reg 1 [ wr_enable $end
$var reg 1 \ reset $end
$var reg 19 ] output[18:0] $end
$var reg 19 ^ data[18:0] $end
$upscope $end
$scope module uc_inst $end
$var reg 19 _ instr[18:0] $end
$var reg 1 ` reset $end
$var reg 1 a flag_zero_in $end
$var reg 1 b flag_carry_in_sub $end
$var reg 1 c flag_carry_in_add $end
$var reg 1 d clk $end
$var reg 1 e flag_zero_out $end
$var reg 1 f flag_carry_out_sub $end
$var reg 1 g flag_carry_out_add $end
$var reg 1 h jump_en $end
$var reg 1 i pc_write $end
$var reg 2 j load_control_ac[1:0] $end
$var reg 1 k load_control_banco $end
$var reg 1 l cmpi_control $end
$var reg 1 m wr_ac_enable $end
$var reg 1 n wr_reg_enable $end
$var reg 1 o flag_zero_reg $end
$var reg 1 p flag_carry_add_reg $end
$var reg 1 q flag_carry_sub_reg $end
$var reg 4 r opcode[3:0] $end
$var reg 1 s reset_flags $end
$var reg 2 t state[1:0] $end
$var reg 1 u wr_enable_flags $end
$scope module inst_fsm $end
$var reg 1 v clk $end
$var reg 1 w reset $end
$var reg 2 x estado[1:0] $end
$var reg 2 y estado_s[1:0] $end
$upscope $end
$scope module flag_zero_ffp $end
$var reg 1 z clk $end
$var reg 1 { input $end
$var reg 1 | wr_enable $end
$var reg 1 } reset $end
$var reg 1 !" output $end
$var reg 1 "" data $end
$upscope $end
$scope module flag_carry_sub_ffp $end
$var reg 1 #" clk $end
$var reg 1 $" input $end
$var reg 1 %" wr_enable $end
$var reg 1 &" reset $end
$var reg 1 '" output $end
$var reg 1 (" data $end
$upscope $end
$scope module flag_carry_add_ffp $end
$var reg 1 )" clk $end
$var reg 1 *" input $end
$var reg 1 +" wr_enable $end
$var reg 1 ," reset $end
$var reg 1 -" output $end
$var reg 1 ." data $end
$upscope $end
$upscope $end
$scope module banco_ula $end
$var reg 1 /" clk $end
$var reg 2 0" op_code[1:0] $end
$var reg 4 1" reg_selector[3:0] $end
$var reg 1 2" load_control_banco $end
$var reg 2 3" load_control_ac[1:0] $end
$var reg 1 4" cmpi_control $end
$var reg 11 5" load_value[10:0] $end
$var reg 1 6" wr_reg_enable $end
$var reg 1 7" wr_ac_enable $end
$var reg 1 8" reset $end
$var reg 1 9" flag_carry_in_sub $end
$var reg 1 :" flag_carry_in_add $end
$var reg 1 ;" flag_zero $end
$var reg 1 <" flag_carry_out_add $end
$var reg 1 =" flag_carry_out_sub $end
$var reg 16 >" ac_value[15:0] $end
$var reg 16 ?" out_banco[15:0] $end
$var reg 16 @" dado_ula[15:0] $end
$var reg 16 A" ac_out[15:0] $end
$var reg 16 B" in_banco[15:0] $end
$var reg 16 C" in_ac[15:0] $end
$var reg 16 D" in_ula[15:0] $end
$var reg 16 E" load_value_16[15:0] $end
$scope module mux_banco $end
$var reg 16 F" ent1[15:0] $end
$var reg 16 G" ent2[15:0] $end
$var reg 1 H" selector_key $end
$var reg 16 I" result[15:0] $end
$upscope $end
$scope module mux_ac $end
$var reg 16 J" ent1[15:0] $end
$var reg 16 K" ent2[15:0] $end
$var reg 16 L" ent3[15:0] $end
$var reg 2 M" selector_key[1:0] $end
$var reg 16 N" result[15:0] $end
$upscope $end
$scope module mux_ula $end
$var reg 16 O" ent1[15:0] $end
$var reg 16 P" ent2[15:0] $end
$var reg 1 Q" selector_key $end
$var reg 16 R" result[15:0] $end
$upscope $end
$scope module banco $end
$var reg 4 S" selector[3:0] $end
$var reg 1 T" clk $end
$var reg 16 U" reg_wr[15:0] $end
$var reg 1 V" wr_enable $end
$var reg 1 W" reset $end
$var reg 16 X" reg_out[15:0] $end
$var reg 9 Y" we_aux[8:0] $end
$comment reg_aux is not handled $end
$scope module demux $end
$var reg 4 Z" selector[3:0] $end
$var reg 1 [" enable_in $end
$var reg 9 \" we[8:0] $end
$upscope $end
$scope module r0 $end
$var reg 1 ]" clk $end
$var reg 16 ^" input[15:0] $end
$var reg 1 _" wr_enable $end
$var reg 1 `" reset $end
$var reg 16 a" output[15:0] $end
$var reg 16 b" data[15:0] $end
$upscope $end
$scope module r1 $end
$var reg 1 c" clk $end
$var reg 16 d" input[15:0] $end
$var reg 1 e" wr_enable $end
$var reg 1 f" reset $end
$var reg 16 g" output[15:0] $end
$var reg 16 h" data[15:0] $end
$upscope $end
$scope module r2 $end
$var reg 1 i" clk $end
$var reg 16 j" input[15:0] $end
$var reg 1 k" wr_enable $end
$var reg 1 l" reset $end
$var reg 16 m" output[15:0] $end
$var reg 16 n" data[15:0] $end
$upscope $end
$scope module r3 $end
$var reg 1 o" clk $end
$var reg 16 p" input[15:0] $end
$var reg 1 q" wr_enable $end
$var reg 1 r" reset $end
$var reg 16 s" output[15:0] $end
$var reg 16 t" data[15:0] $end
$upscope $end
$scope module r4 $end
$var reg 1 u" clk $end
$var reg 16 v" input[15:0] $end
$var reg 1 w" wr_enable $end
$var reg 1 x" reset $end
$var reg 16 y" output[15:0] $end
$var reg 16 z" data[15:0] $end
$upscope $end
$scope module r5 $end
$var reg 1 {" clk $end
$var reg 16 |" input[15:0] $end
$var reg 1 }" wr_enable $end
$var reg 1 !# reset $end
$var reg 16 "# output[15:0] $end
$var reg 16 ## data[15:0] $end
$upscope $end
$scope module r6 $end
$var reg 1 $# clk $end
$var reg 16 %# input[15:0] $end
$var reg 1 &# wr_enable $end
$var reg 1 '# reset $end
$var reg 16 (# output[15:0] $end
$var reg 16 )# data[15:0] $end
$upscope $end
$scope module r7 $end
$var reg 1 *# clk $end
$var reg 16 +# input[15:0] $end
$var reg 1 ,# wr_enable $end
$var reg 1 -# reset $end
$var reg 16 .# output[15:0] $end
$var reg 16 /# data[15:0] $end
$upscope $end
$scope module r8 $end
$var reg 1 0# clk $end
$var reg 16 1# input[15:0] $end
$var reg 1 2# wr_enable $end
$var reg 1 3# reset $end
$var reg 16 4# output[15:0] $end
$var reg 16 5# data[15:0] $end
$upscope $end
$scope module mux $end
$var reg 4 6# selector[3:0] $end
$var reg 16 7# x0[15:0] $end
$var reg 16 8# x1[15:0] $end
$var reg 16 9# x2[15:0] $end
$var reg 16 :# x3[15:0] $end
$var reg 16 ;# x4[15:0] $end
$var reg 16 <# x5[15:0] $end
$var reg 16 =# x6[15:0] $end
$var reg 16 ># x7[15:0] $end
$var reg 16 ?# x8[15:0] $end
$var reg 16 @# result[15:0] $end
$upscope $end
$upscope $end
$scope module ula_inst $end
$var reg 1 A# clk $end
$var reg 16 B# ent1[15:0] $end
$var reg 16 C# ac[15:0] $end
$var reg 2 D# op_code[1:0] $end
$var reg 1 E# flag_carry_in_sub $end
$var reg 1 F# flag_carry_out_sub $end
$var reg 1 G# flag_carry_in_add $end
$var reg 1 H# flag_carry_out_add $end
$var reg 1 I# flag_zero_out $end
$var reg 16 J# res[15:0] $end
$var reg 16 K# soma[15:0] $end
$var reg 16 L# sub[15:0] $end
$var reg 16 M# mux_out[15:0] $end
$var reg 16 N# and_op[15:0] $end
$var reg 17 O# result_carry_add[16:0] $end
$var reg 17 P# result_carry_sub[16:0] $end
$var reg 16 Q# carry_add_16[15:0] $end
$var reg 16 R# carry_sub_16[15:0] $end
$scope module mux $end
$var reg 16 S# add[15:0] $end
$var reg 16 T# sub[15:0] $end
$var reg 16 U# andop[15:0] $end
$var reg 16 V# cmp[15:0] $end
$var reg 2 W# selector_key[1:0] $end
$var reg 16 X# result[15:0] $end
$upscope $end
$upscope $end
$scope module acumulador $end
$var reg 1 Y# clk $end
$var reg 16 Z# input[15:0] $end
$var reg 1 [# wr_enable $end
$var reg 1 \# reset $end
$var reg 16 ]# output[15:0] $end
$var reg 16 ^# data[15:0] $end
$upscope $end
$upscope $end
$upscope $end
$upscope $end
$enddefinitions $end
#0
0!
1"
0#
1$
b0000000 %
bUUUUUUUUUUUUUUUUUUU &
b0000001 '
0(
b0000000 )
0*
b00 +
b0000 ,
b00 -
0.
0/
b00000000000 0
01
02
b0000000000000000 3
b0000000000000000000 4
b0000 5
b00000000 6
b0000000 7
b00000000 8
19
0:
0;
0<
0=
0>
0?
1@
0A
0B
b0000001 C
b0000000 D
b0000000 E
b0000000000000001 F
b0000000000000000 G
b0000000000000001 H
b0000000000000000 I
b0000000000000001 J
b0000000000000000 K
0L
b0000000000000001 M
0N
b0000000000000001 O
0P
1Q
b0000000000000000 R
b0000000000000000 S
0T
b0000000 U
bUUUUUUUUUUUUUUUUUUU V
b0000000 W
b0000001 X
0Y
bUUUUUUUUUUUUUUUUUUU Z
1[
1\
b0000000000000000000 ]
b0000000000000000000 ^
b0000000000000000000 _
1`
1a
0b
0c
0d
0e
0f
0g
0h
0i
b00 j
0k
0l
0m
0n
0o
0p
0q
b0000 r
0s
b00 t
0u
0v
1w
b00 x
b00 y
0z
1{
0|
0}
0!"
0""
0#"
0$"
0%"
0&"
0'"
0("
0)"
0*"
0+"
0,"
0-"
0."
0/"
b00 0"
b0000 1"
02"
b00 3"
04"
b00000000000 5"
06"
07"
18"
09"
0:"
1;"
0<"
0="
b0000000000000000 >"
b0000000000000000 ?"
b0000000000000000 @"
b0000000000000000 A"
b0000000000000000 B"
b0000000000000000 C"
b0000000000000000 D"
b0000000000000000 E"
b0000000000000000 F"
b0000000000000000 G"
0H"
b0000000000000000 I"
b0000000000000000 J"
b0000000000000000 K"
b0000000000000000 L"
b00 M"
b0000000000000000 N"
b0000000000000000 O"
b0000000000000000 P"
0Q"
b0000000000000000 R"
b0000 S"
0T"
b0000000000000000 U"
0V"
1W"
b0000000000000000 X"
b000000000 Y"
b0000 Z"
0["
b000000000 \"
0]"
b0000000000000000 ^"
0_"
1`"
b0000000000000000 a"
b0000000000000000 b"
0c"
b0000000000000000 d"
0e"
1f"
b0000000000000000 g"
b0000000000000000 h"
0i"
b0000000000000000 j"
0k"
1l"
b0000000000000000 m"
b0000000000000000 n"
0o"
b0000000000000000 p"
0q"
1r"
b0000000000000000 s"
b0000000000000000 t"
0u"
b0000000000000000 v"
0w"
1x"
b0000000000000000 y"
b0000000000000000 z"
0{"
b0000000000000000 |"
0}"
1!#
b0000000000000000 "#
b0000000000000000 ##
0$#
b0000000000000000 %#
0&#
1'#
b0000000000000000 (#
b0000000000000000 )#
0*#
b0000000000000000 +#
0,#
1-#
b0000000000000000 .#
b0000000000000000 /#
00#
b0000000000000000 1#
02#
13#
b0000000000000000 4#
b0000000000000000 5#
b0000 6#
b0000000000000000 7#
b0000000000000000 8#
b0000000000000000 9#
b0000000000000000 :#
b0000000000000000 ;#
b0000000000000000 <#
b0000000000000000 =#
b0000000000000000 >#
b0000000000000000 ?#
b0000000000000000 @#
0A#
b0000000000000000 B#
b0000000000000000 C#
b00 D#
0E#
0F#
0G#
0H#
1I#
b0000000000000000 J#
b0000000000000000 K#
b0000000000000000 L#
b0000000000000000 M#
b0000000000000000 N#
b00000000000000000 O#
b00000000000000000 P#
b0000000000000000 Q#
b0000000000000000 R#
b0000000000000000 S#
b0000000000000000 T#
b0000000000000000 U#
b0000000000000000 V#
b00 W#
b0000000000000000 X#
0Y#
b0000000000000000 Z#
0[#
1\#
b0000000000000000 ]#
b0000000000000000 ^#
#5000000
1!
0"
1#
0$
b0110001100000000000 &
bUU +
bUUUU ,
bUUUUUUUUUUU 0
bUUUUUUUUUUUUUUUUUUU 4
bUUUU 5
bXXXXXXX 7
bXXXXXXXX 8
1?
0@
1N
0Q
1T
b0110001100000000000 V
1Y
b0110001100000000000 Z
0\
bUUUUUUUUUUUUUUUUUUU ]
bUUUUUUUUUUUUUUUUUUU ^
bUUUUUUUUUUUUUUUUUUU _
0`
1d
bUUUU r
b01 t
Uu
1v
0w
b01 x
b01 y
1z
U|
1#"
U%"
1)"
U+"
1/"
bUU 0"
bUUUU 1"
bUUUUUUUUUUU 5"
08"
b00000UUUUUUUUUUU E"
b00000UUUUUUUUUUU G"
b00000UUUUUUUUUUU K"
b00000UUUUUUUUUUU P"
bUUUU S"
1T"
0W"
bUUUU Z"
1]"
0`"
1c"
0f"
1i"
0l"
1o"
0r"
1u"
0x"
1{"
0!#
1$#
0'#
1*#
0-#
10#
03#
bUUUU 6#
1A#
bUU D#
bUU W#
1Y#
0\#
#10000000
0!
0#
0?
0N
0T
0Y
0d
0v
0z
0#"
0)"
0/"
0T"
0]"
0c"
0i"
0o"
0u"
0{"
0$#
0*#
00#
0A#
0Y#
#15000000
1!
1#
b11 +
b0011 ,
1.
b00000000000 0
12
b0110001100000000000 4
b0110 5
b0110000 7
b00110000 8
1?
1N
1T
1Y
b0110001100000000000 ]
b0110001100000000000 ^
b0110001100000000000 _
1d
1k
1n
b0110 r
b10 t
0u
1v
b10 x
b10 y
1z
0|
1#"
0%"
1)"
0+"
1/"
b11 0"
b0011 1"
12"
b00000000000 5"
16"
b0000000000000000 E"
b0000000000000000 G"
1H"
b0000000000000000 K"
b0000000000000000 P"
b0011 S"
1T"
1V"
b000001000 Y"
b0011 Z"
1["
b000001000 \"
1]"
1c"
1i"
1o"
1q"
1u"
1{"
1$#
1*#
10#
b0011 6#
1A#
b11 D#
b11 W#
1Y#
#20000000
0!
0#
0?
0N
0T
0Y
0d
0v
0z
0#"
0)"
0/"
0T"
0]"
0c"
0i"
0o"
0u"
0{"
0$#
0*#
00#
0A#
0Y#
#25000000
1!
1#
1*
02
1?
1A
1N
1P
1T
1Y
1d
1i
0n
b11 t
1v
b11 x
b11 y
1z
1#"
1)"
1/"
06"
1T"
0V"
b000000000 Y"
0["
b000000000 \"
1]"
1c"
1i"
1o"
0q"
1u"
1{"
1$#
1*#
10#
1A#
1Y#
#30000000
0!
0#
0?
0N
0T
0Y
0d
0v
0z
0#"
0)"
0/"
0T"
0]"
0c"
0i"
0o"
0u"
0{"
0$#
0*#
00#
0A#
0Y#
#35000000
1!
1#
b0000001 %
b0000010 '
0*
b00000001 6
b0110001 7
b00110001 8
1?
0A
b0000010 C
b0000001 E
b0000000000000010 F
b0000000000000010 H
b0000000000000001 I
b0000000000000010 J
b0000000000000010 M
1N
b0000000000000010 O
0P
b0000000000000001 R
b0000000000000001 S
1T
b0000001 U
b0000001 W
b0000010 X
1Y
1d
0i
b00 t
1v
b00 x
b00 y
1z
1#"
1)"
1/"
1T"
1]"
1c"
1i"
1o"
1u"
1{"
1$#
1*#
10#
1A#
1Y#
#40000000
0!
0#
0?
0N
0T
0Y
0d
0v
0z
0#"
0)"
0/"
0T"
0]"
0c"
0i"
0o"
0u"
0{"
0$#
0*#
00#
0A#
0Y#
#45000000
1!
1#
b0110010000000000000 &
1?
1N
1T
b0110010000000000000 V
1Y
b0110010000000000000 Z
1d
b01 t
1v
b01 x
b01 y
1z
1#"
1)"
1/"
1T"
1]"
1c"
1i"
1o"
1u"
1{"
1$#
1*#
10#
1A#
1Y#
#50000000
0!
0#
0?
0N
0T
0Y
0d
0v
0z
0#"
0)"
0/"
0T"
0]"
0c"
0i"
0o"
0u"
0{"
0$#
0*#
00#
0A#
0Y#
#55000000
1!
1#
b0100 ,
12
b0110010000000000000 4
b1000001 7
b01000001 8
1?
1N
1T
1Y
b0110010000000000000 ]
b0110010000000000000 ^
b0110010000000000000 _
1d
1n
b10 t
1v
b10 x
b10 y
1z
1#"
1)"
1/"
b0100 1"
16"
b0100 S"
1T"
1V"
b000010000 Y"
b0100 Z"
1["
b000010000 \"
1]"
1c"
1i"
1o"
1u"
1w"
1{"
1$#
1*#
10#
b0100 6#
1A#
1Y#
#60000000
0!
0#
0?
0N
0T
0Y
0d
0v
0z
0#"
0)"
0/"
0T"
0]"
0c"
0i"
0o"
0u"
0{"
0$#
0*#
00#
0A#
0Y#
#65000000
1!
1#
1*
02
1?
1A
1N
1P
1T
1Y
1d
1i
0n
b11 t
1v
b11 x
b11 y
1z
1#"
1)"
1/"
06"
1T"
0V"
b000000000 Y"
0["
b000000000 \"
1]"
1c"
1i"
1o"
1u"
0w"
1{"
1$#
1*#
10#
1A#
1Y#
#70000000
0!
0#
0?
0N
0T
0Y
0d
0v
0z
0#"
0)"
0/"
0T"
0]"
0c"
0i"
0o"
0u"
0{"
0$#
0*#
00#
0A#
0Y#
#75000000
1!
1#
b0000010 %
b0000011 '
0*
b00000010 6
b1000010 7
b01000010 8
1?
0A
b0000011 C
b0000010 E
b0000000000000011 F
b0000000000000011 H
b0000000000000010 I
b0000000000000011 J
b0000000000000011 M
1N
b0000000000000011 O
0P
b0000000000000010 R
b0000000000000010 S
1T
b0000010 U
b0000010 W
b0000011 X
1Y
1d
0i
b00 t
1v
b00 x
b00 y
1z
1#"
1)"
1/"
1T"
1]"
1c"
1i"
1o"
1u"
1{"
1$#
1*#
10#
1A#
1Y#
#80000000
0!
0#
0?
0N
0T
0Y
0d
0v
0z
0#"
0)"
0/"
0T"
0]"
0c"
0i"
0o"
0u"
0{"
0$#
0*#
00#
0A#
0Y#
#85000000
1!
1#
b1000001100000000000 &
1?
1N
1T
b1000001100000000000 V
1Y
b1000001100000000000 Z
1d
b01 t
1v
b01 x
b01 y
1z
1#"
1)"
1/"
1T"
1]"
1c"
1i"
1o"
1u"
1{"
1$#
1*#
10#
1A#
1Y#
#90000000
0!
0#
0?
0N
0T
0Y
0d
0v
0z
0#"
0)"
0/"
0T"
0]"
0c"
0i"
0o"
0u"
0{"
0$#
0*#
00#
0A#
0Y#
#95000000
1!
1#
b00 +
b0011 ,
b10 -
0.
11
02
b1000001100000000000 4
b1000 5
b0110010 7
b00110010 8
1?
1N
1T
1Y
b1000001100000000000 ]
b1000001100000000000 ^
b1000001100000000000 _
1d
b10 j
0k
1m
0n
b1000 r
b10 t
1v
b10 x
b10 y
1z
1#"
1)"
1/"
b00 0"
b0011 1"
02"
b10 3"
06"
17"
0H"
b10 M"
b0011 S"
1T"
0V"
b000000000 Y"
b0011 Z"
0["
b000000000 \"
1]"
1c"
1i"
1o"
0q"
1u"
1{"
1$#
1*#
10#
b0011 6#
1A#
b00 D#
b00 W#
1Y#
1[#
#100000000
0!
0#
0?
0N
0T
0Y
0d
0v
0z
0#"
0)"
0/"
0T"
0]"
0c"
0i"
0o"
0u"
0{"
0$#
0*#
00#
0A#
0Y#
#105000000
1!
1#
1*
01
1?
1A
1N
1P
1T
1Y
1d
1i
0m
b11 t
1v
b11 x
b11 y
1z
1#"
1)"
1/"
07"
1T"
1]"
1c"
1i"
1o"
1u"
1{"
1$#
1*#
10#
1A#
1Y#
0[#
#110000000
0!
0#
0?
0N
0T
0Y
0d
0v
0z
0#"
0)"
0/"
0T"
0]"
0c"
0i"
0o"
0u"
0{"
0$#
0*#
00#
0A#
0Y#
#115000000
1!
1#
b0000011 %
b0000100 '
0*
b00000011 6
b0110011 7
b00110011 8
1?
0A
b0000100 C
b0000011 E
b0000000000000100 F
b0000000000000100 H
b0000000000000011 I
b0000000000000100 J
b0000000000000100 M
1N
b0000000000000100 O
0P
b0000000000000011 R
b0000000000000011 S
1T
b0000011 U
b0000011 W
b0000100 X
1Y
1d
0i
b00 t
1v
b00 x
b00 y
1z
1#"
1)"
1/"
1T"
1]"
1c"
1i"
1o"
1u"
1{"
1$#
1*#
10#
1A#
1Y#
#120000000
0!
0#
0?
0N
0T
0Y
0d
0v
0z
0#"
0)"
0/"
0T"
0]"
0c"
0i"
0o"
0u"
0{"
0$#
0*#
00#
0A#
0Y#
#125000000
1!
1#
b0001010000000000000 &
1?
1N
1T
b0001010000000000000 V
1Y
b0001010000000000000 Z
1d
b01 t
1v
b01 x
b01 y
1z
1#"
1)"
1/"
1T"
1]"
1c"
1i"
1o"
1u"
1{"
1$#
1*#
10#
1A#
1Y#
#130000000
0!
0#
0?
0N
0T
0Y
0d
0v
0z
0#"
0)"
0/"
0T"
0]"
0c"
0i"
0o"
0u"
0{"
0$#
0*#
00#
0A#
0Y#
#135000000
1!
1#
b0100 ,
b00 -
11
b0001010000000000000 4
b0001 5
b1000011 7
b01000011 8
1?
1N
1T
1Y
b0001010000000000000 ]
b0001010000000000000 ^
b0001010000000000000 _
1d
b00 j
1m
b0001 r
b10 t
1u
1v
b10 x
b10 y
1z
1|
1#"
1%"
1)"
1+"
1/"
b0100 1"
b00 3"
17"
b00 M"
b0100 S"
1T"
b0100 Z"
1]"
1c"
1i"
1o"
1u"
1{"
1$#
1*#
10#
b0100 6#
1A#
1Y#
1[#
#140000000
0!
0#
0?
0N
0T
0Y
0d
0v
0z
0#"
0)"
0/"
0T"
0]"
0c"
0i"
0o"
0u"
0{"
0$#
0*#
00#
0A#
0Y#
#145000000
1!
1#
1*
01
1<
1?
1A
1N
1P
1T
1Y
1d
1e
1i
0m
1o
b11 t
1v
b11 x
b11 y
1z
1!"
1""
1#"
1)"
1/"
07"
1T"
1]"
1c"
1i"
1o"
1u"
1{"
1$#
1*#
10#
1A#
1Y#
0[#
#150000000
0!
0#
0?
0N
0T
0Y
0d
0v
0z
0#"
0)"
0/"
0T"
0]"
0c"
0i"
0o"
0u"
0{"
0$#
0*#
00#
0A#
0Y#
#155000000
1!
1#
b0000100 %
b0000101 '
0*
b00000100 6
b1000100 7
b01000100 8
1?
0A
b0000101 C
b0000100 E
b0000000000000101 F
b0000000000000101 H
b0000000000000100 I
b0000000000000101 J
b0000000000000101 M
1N
b0000000000000101 O
0P
b0000000000000100 R
b0000000000000100 S
1T
b0000100 U
b0000100 W
b0000101 X
1Y
1d
0i
b00 t
1v
b00 x
b00 y
1z
1#"
1)"
1/"
1T"
1]"
1c"
1i"
1o"
1u"
1{"
1$#
1*#
10#
1A#
1Y#
#160000000
0!
0#
0?
0N
0T
0Y
0d
0v
0z
0#"
0)"
0/"
0T"
0]"
0c"
0i"
0o"
0u"
0{"
0$#
0*#
00#
0A#
0Y#
#165000000
1!
1#
b1100010000000000000 &
1?
1N
1T
b1100010000000000000 V
1Y
b1100010000000000000 Z
1d
b01 t
1v
b01 x
b01 y
1z
1#"
1)"
1/"
1T"
1]"
1c"
1i"
1o"
1u"
1{"
1$#
1*#
10#
1A#
1Y#
#170000000
0!
0#
0?
0N
0T
0Y
0d
0v
0z
0#"
0)"
0/"
0T"
0]"
0c"
0i"
0o"
0u"
0{"
0$#
0*#
00#
0A#
0Y#
#175000000
1!
1#
b10 +
01
12
b1100010000000000000 4
b1100 5
1?
1N
1T
1Y
b1100010000000000000 ]
b1100010000000000000 ^
b1100010000000000000 _
1d
0m
1n
b1100 r
b10 t
0u
1v
b10 x
b10 y
1z
0|
1#"
0%"
1)"
0+"
1/"
b10 0"
16"
07"
1T"
1V"
b000010000 Y"
1["
b000010000 \"
1]"
1c"
1i"
1o"
1u"
1w"
1{"
1$#
1*#
10#
1A#
b10 D#
b10 W#
1Y#
0[#
#180000000
0!
0#
0?
0N
0T
0Y
0d
0v
0z
0#"
0)"
0/"
0T"
0]"
0c"
0i"
0o"
0u"
0{"
0$#
0*#
00#
0A#
0Y#
#185000000
1!
1#
1*
02
1?
1A
1N
1P
1T
1Y
1d
1i
0n
b11 t
1v
b11 x
b11 y
1z
1#"
1)"
1/"
06"
1T"
0V"
b000000000 Y"
0["
b000000000 \"
1]"
1c"
1i"
1o"
1u"
0w"
1{"
1$#
1*#
10#
1A#
1Y#
#190000000
0!
0#
0?
0N
0T
0Y
0d
0v
0z
0#"
0)"
0/"
0T"
0]"
0c"
0i"
0o"
0u"
0{"
0$#
0*#
00#
0A#
0Y#
#195000000
1!
1#
b0000101 %
b0000110 '
0*
b00000101 6
b1000101 7
b01000101 8
1?
0A
b0000110 C
b0000101 E
b0000000000000110 F
b0000000000000110 H
b0000000000000101 I
b0000000000000110 J
b0000000000000110 M
1N
b0000000000000110 O
0P
b0000000000000101 R
b0000000000000101 S
1T
b0000101 U
b0000101 W
b0000110 X
1Y
1d
0i
b00 t
1v
b00 x
b00 y
1z
1#"
1)"
1/"
1T"
1]"
1c"
1i"
1o"
1u"
1{"
1$#
1*#
10#
1A#
1Y#
#200000000
0!
0#
0?
0N
0T
0Y
0d
0v
0z
0#"
0)"
0/"
0T"
0]"
0c"
0i"
0o"
0u"
0{"
0$#
0*#
00#
0A#
0Y#
#205000000
1!
1#
b1000001100000000000 &
1?
1N
1T
b1000001100000000000 V
1Y
b1000001100000000000 Z
1d
b01 t
1v
b01 x
b01 y
1z
1#"
1)"
1/"
1T"
1]"
1c"
1i"
1o"
1u"
1{"
1$#
1*#
10#
1A#
1Y#
#210000000
0!
0#
0?
0N
0T
0Y
0d
0v
0z
0#"
0)"
0/"
0T"
0]"
0c"
0i"
0o"
0u"
0{"
0$#
0*#
00#
0A#
0Y#
#215000000
1!
1#
b00 +
b0011 ,
b10 -
11
02
b1000001100000000000 4
b1000 5
b0110101 7
b00110101 8
1?
1N
1T
1Y
b1000001100000000000 ]
b1000001100000000000 ^
b1000001100000000000 _
1d
b10 j
1m
0n
b1000 r
b10 t
1v
b10 x
b10 y
1z
1#"
1)"
1/"
b00 0"
b0011 1"
b10 3"
06"
17"
b10 M"
b0011 S"
1T"
0V"
b000000000 Y"
b0011 Z"
0["
b000000000 \"
1]"
1c"
1i"
1o"
0q"
1u"
1{"
1$#
1*#
10#
b0011 6#
1A#
b00 D#
b00 W#
1Y#
1[#
#220000000
0!
0#
0?
0N
0T
0Y
0d
0v
0z
0#"
0)"
0/"
0T"
0]"
0c"
0i"
0o"
0u"
0{"
0$#
0*#
00#
0A#
0Y#
#225000000
1!
1#
1*
01
1?
1A
1N
1P
1T
1Y
1d
1i
0m
b11 t
1v
b11 x
b11 y
1z
1#"
1)"
1/"
07"
1T"
1]"
1c"
1i"
1o"
1u"
1{"
1$#
1*#
10#
1A#
1Y#
0[#
#230000000
0!
0#
0?
0N
0T
0Y
0d
0v
0z
0#"
0)"
0/"
0T"
0]"
0c"
0i"
0o"
0u"
0{"
0$#
0*#
00#
0A#
0Y#
#235000000
1!
1#
b0000110 %
b0000111 '
0*
b00000110 6
b0110110 7
b00110110 8
1?
0A
b0000111 C
b0000110 E
b0000000000000111 F
b0000000000000111 H
b0000000000000110 I
b0000000000000111 J
b0000000000000111 M
1N
b0000000000000111 O
0P
b0000000000000110 R
b0000000000000110 S
1T
b0000110 U
b0000110 W
b0000111 X
1Y
1d
0i
b00 t
1v
b00 x
b00 y
1z
1#"
1)"
1/"
1T"
1]"
1c"
1i"
1o"
1u"
1{"
1$#
1*#
10#
1A#
1Y#
#240000000
0!
0#
0?
0N
0T
0Y
0d
0v
0z
0#"
0)"
0/"
0T"
0]"
0c"
0i"
0o"
0u"
0{"
0$#
0*#
00#
0A#
0Y#
#245000000
1!
1#
b1001000000000000001 &
1?
1N
1T
b1001000000000000001 V
1Y
b1001000000000000001 Z
1d
b01 t
1v
b01 x
b01 y
1z
1#"
1)"
1/"
1T"
1]"
1c"
1i"
1o"
1u"
1{"
1$#
1*#
10#
1A#
1Y#
#250000000
0!
0#
0?
0N
0T
0Y
0d
0v
0z
0#"
0)"
0/"
0T"
0]"
0c"
0i"
0o"
0u"
0{"
0$#
0*#
00#
0A#
0Y#
