Processador_tb.vcd
$date
  Wed Jun  4 16:22:50 2025
$end
$version
  GHDL v0
$end
$timescale
  1 fs
$end
$scope module standard $end
$upscope $end
$scope module std_logic_1164 $end
$upscope $end
$scope module numeric_std $end
$upscope $end
$scope module processador_tb $end
$var reg 1 ! clk $end
$var reg 1 " reset $end
$scope module uut $end
$var reg 1 # clk $end
$var reg 1 $ reset $end
$var reg 7 % endereco_s[6:0] $end
$var reg 19 & dado_rom_s[18:0] $end
$var reg 7 ' input_inc_s[6:0] $end
$var reg 1 ( jump_en_s $end
$var reg 7 ) input_jump_s[6:0] $end
$var reg 1 * pc_write_s $end
$var reg 2 + opcode_ula[1:0] $end
$var reg 4 , reg_selector_s[3:0] $end
$var reg 2 - load_control_ac_s[1:0] $end
$var reg 1 . load_control_banco_s $end
$var reg 1 / cmpi_control_s $end
$var reg 11 0 load_value_s[10:0] $end
$var reg 1 1 wr_ac_enable_s $end
$var reg 1 2 wr_reg_enable_s $end
$var reg 16 3 ac_value_s[15:0] $end
$var reg 19 4 instr_out_s[18:0] $end
$var reg 1 5 flag_zero_in_s $end
$var reg 1 6 flag_carry_in_sub_s $end
$var reg 1 7 flag_carry_in_add_s $end
$var reg 1 8 flag_zero_out_s $end
$var reg 1 9 flag_carry_out_sub_s $end
$var reg 1 : flag_carry_out_add_s $end
$scope module pc_inst $end
$var reg 1 ; clk $end
$var reg 1 < reset $end
$var reg 1 = wr_enable $end
$var reg 1 > seletor $end
$var reg 7 ? input_inc[6:0] $end
$var reg 7 @ input_jump[6:0] $end
$var reg 7 A pc_out[6:0] $end
$var reg 16 B ent1_ext[15:0] $end
$var reg 16 C ent2_ext[15:0] $end
$var reg 16 D mux_out[15:0] $end
$var reg 16 E reg_out[15:0] $end
$scope module mux_inst $end
$var reg 16 F ent1[15:0] $end
$var reg 16 G ent2[15:0] $end
$var reg 1 H selector_key $end
$var reg 16 I result[15:0] $end
$upscope $end
$scope module reg_inst $end
$var reg 1 J clk $end
$var reg 16 K input[15:0] $end
$var reg 1 L wr_enable $end
$var reg 1 M reset $end
$var reg 16 N output[15:0] $end
$var reg 16 O data[15:0] $end
$upscope $end
$upscope $end
$scope module rom_inst $end
$var reg 1 P clk $end
$var reg 7 Q endereco[6:0] $end
$var reg 19 R dado[18:0] $end
$upscope $end
$scope module somador_inst $end
$var reg 7 S entrada[6:0] $end
$var reg 7 T saida[6:0] $end
$upscope $end
$scope module reg_instr $end
$var reg 1 U clk $end
$var reg 19 V input[18:0] $end
$var reg 1 W wr_enable $end
$var reg 1 X reset $end
$var reg 19 Y output[18:0] $end
$var reg 19 Z data[18:0] $end
$upscope $end
$scope module uc_inst $end
$var reg 19 [ instr[18:0] $end
$var reg 1 \ reset $end
$var reg 1 ] flag_zero_in $end
$var reg 1 ^ flag_carry_in_sub $end
$var reg 1 _ flag_carry_in_add $end
$var reg 1 ` clk $end
$var reg 1 a flag_zero_out $end
$var reg 1 b flag_carry_out_sub $end
$var reg 1 c flag_carry_out_add $end
$var reg 1 d jump_en $end
$var reg 1 e pc_write $end
$var reg 2 f load_control_ac[1:0] $end
$var reg 1 g load_control_banco $end
$var reg 1 h cmpi_control $end
$var reg 1 i wr_ac_enable $end
$var reg 1 j wr_reg_enable $end
$var reg 1 k flag_zero_reg $end
$var reg 1 l flag_carry_add_reg $end
$var reg 1 m flag_carry_sub_reg $end
$var reg 4 n opcode[3:0] $end
$var reg 2 o state[1:0] $end
$scope module inst_fsm $end
$var reg 1 p clk $end
$var reg 1 q reset $end
$var reg 2 r estado[1:0] $end
$var reg 2 s estado_s[1:0] $end
$upscope $end
$scope module flag_zero_ffp $end
$var reg 1 t clk $end
$var reg 1 u input $end
$var reg 1 v wr_enable $end
$var reg 1 w reset $end
$var reg 1 x output $end
$var reg 1 y data $end
$upscope $end
$scope module flag_carry_sub_ffp $end
$var reg 1 z clk $end
$var reg 1 { input $end
$var reg 1 | wr_enable $end
$var reg 1 } reset $end
$var reg 1 !" output $end
$var reg 1 "" data $end
$upscope $end
$scope module flag_carry_add_ffp $end
$var reg 1 #" clk $end
$var reg 1 $" input $end
$var reg 1 %" wr_enable $end
$var reg 1 &" reset $end
$var reg 1 '" output $end
$var reg 1 (" data $end
$upscope $end
$upscope $end
$scope module banco_ula $end
$var reg 1 )" clk $end
$var reg 2 *" op_code[1:0] $end
$var reg 4 +" reg_selector[3:0] $end
$var reg 1 ," load_control_banco $end
$var reg 2 -" load_control_ac[1:0] $end
$var reg 1 ." cmpi_control $end
$var reg 11 /" load_value[10:0] $end
$var reg 1 0" wr_reg_enable $end
$var reg 1 1" wr_ac_enable $end
$var reg 1 2" reset $end
$var reg 1 3" flag_carry_in_sub $end
$var reg 1 4" flag_carry_in_add $end
$var reg 1 5" flag_zero $end
$var reg 1 6" flag_carry_out_add $end
$var reg 1 7" flag_carry_out_sub $end
$var reg 16 8" ac_value[15:0] $end
$var reg 16 9" out_banco[15:0] $end
$var reg 16 :" dado_ula[15:0] $end
$var reg 16 ;" ac_out[15:0] $end
$var reg 16 <" in_banco[15:0] $end
$var reg 16 =" in_ac[15:0] $end
$var reg 16 >" in_ula[15:0] $end
$var reg 16 ?" load_value_16[15:0] $end
$scope module mux_banco $end
$var reg 16 @" ent1[15:0] $end
$var reg 16 A" ent2[15:0] $end
$var reg 1 B" selector_key $end
$var reg 16 C" result[15:0] $end
$upscope $end
$scope module mux_ac $end
$var reg 16 D" ent1[15:0] $end
$var reg 16 E" ent2[15:0] $end
$var reg 16 F" ent3[15:0] $end
$var reg 2 G" selector_key[1:0] $end
$var reg 16 H" result[15:0] $end
$upscope $end
$scope module mux_ula $end
$var reg 16 I" ent1[15:0] $end
$var reg 16 J" ent2[15:0] $end
$var reg 1 K" selector_key $end
$var reg 16 L" result[15:0] $end
$upscope $end
$scope module banco $end
$var reg 4 M" selector[3:0] $end
$var reg 1 N" clk $end
$var reg 16 O" reg_wr[15:0] $end
$var reg 1 P" wr_enable $end
$var reg 1 Q" reset $end
$var reg 16 R" reg_out[15:0] $end
$var reg 9 S" we_aux[8:0] $end
$comment reg_aux is not handled $end
$scope module demux $end
$var reg 4 T" selector[3:0] $end
$var reg 1 U" enable_in $end
$var reg 9 V" we[8:0] $end
$upscope $end
$scope module r0 $end
$var reg 1 W" clk $end
$var reg 16 X" input[15:0] $end
$var reg 1 Y" wr_enable $end
$var reg 1 Z" reset $end
$var reg 16 [" output[15:0] $end
$var reg 16 \" data[15:0] $end
$upscope $end
$scope module r1 $end
$var reg 1 ]" clk $end
$var reg 16 ^" input[15:0] $end
$var reg 1 _" wr_enable $end
$var reg 1 `" reset $end
$var reg 16 a" output[15:0] $end
$var reg 16 b" data[15:0] $end
$upscope $end
$scope module r2 $end
$var reg 1 c" clk $end
$var reg 16 d" input[15:0] $end
$var reg 1 e" wr_enable $end
$var reg 1 f" reset $end
$var reg 16 g" output[15:0] $end
$var reg 16 h" data[15:0] $end
$upscope $end
$scope module r3 $end
$var reg 1 i" clk $end
$var reg 16 j" input[15:0] $end
$var reg 1 k" wr_enable $end
$var reg 1 l" reset $end
$var reg 16 m" output[15:0] $end
$var reg 16 n" data[15:0] $end
$upscope $end
$scope module r4 $end
$var reg 1 o" clk $end
$var reg 16 p" input[15:0] $end
$var reg 1 q" wr_enable $end
$var reg 1 r" reset $end
$var reg 16 s" output[15:0] $end
$var reg 16 t" data[15:0] $end
$upscope $end
$scope module r5 $end
$var reg 1 u" clk $end
$var reg 16 v" input[15:0] $end
$var reg 1 w" wr_enable $end
$var reg 1 x" reset $end
$var reg 16 y" output[15:0] $end
$var reg 16 z" data[15:0] $end
$upscope $end
$scope module r6 $end
$var reg 1 {" clk $end
$var reg 16 |" input[15:0] $end
$var reg 1 }" wr_enable $end
$var reg 1 !# reset $end
$var reg 16 "# output[15:0] $end
$var reg 16 ## data[15:0] $end
$upscope $end
$scope module r7 $end
$var reg 1 $# clk $end
$var reg 16 %# input[15:0] $end
$var reg 1 &# wr_enable $end
$var reg 1 '# reset $end
$var reg 16 (# output[15:0] $end
$var reg 16 )# data[15:0] $end
$upscope $end
$scope module r8 $end
$var reg 1 *# clk $end
$var reg 16 +# input[15:0] $end
$var reg 1 ,# wr_enable $end
$var reg 1 -# reset $end
$var reg 16 .# output[15:0] $end
$var reg 16 /# data[15:0] $end
$upscope $end
$scope module mux $end
$var reg 4 0# selector[3:0] $end
$var reg 16 1# x0[15:0] $end
$var reg 16 2# x1[15:0] $end
$var reg 16 3# x2[15:0] $end
$var reg 16 4# x3[15:0] $end
$var reg 16 5# x4[15:0] $end
$var reg 16 6# x5[15:0] $end
$var reg 16 7# x6[15:0] $end
$var reg 16 8# x7[15:0] $end
$var reg 16 9# x8[15:0] $end
$var reg 16 :# result[15:0] $end
$upscope $end
$upscope $end
$scope module ula_inst $end
$var reg 1 ;# clk $end
$var reg 16 <# ent1[15:0] $end
$var reg 16 =# ac[15:0] $end
$var reg 2 ># op_code[1:0] $end
$var reg 1 ?# flag_carry_in_sub $end
$var reg 1 @# flag_carry_out_sub $end
$var reg 1 A# flag_carry_in_add $end
$var reg 1 B# flag_carry_out_add $end
$var reg 1 C# flag_zero_out $end
$var reg 16 D# res[15:0] $end
$var reg 16 E# soma[15:0] $end
$var reg 16 F# sub[15:0] $end
$var reg 16 G# mux_out[15:0] $end
$var reg 16 H# and_op[15:0] $end
$var reg 17 I# result_carry_add[16:0] $end
$var reg 17 J# result_carry_sub[16:0] $end
$var reg 16 K# carry_add_16[15:0] $end
$var reg 16 L# carry_sub_16[15:0] $end
$scope module mux $end
$var reg 16 M# add[15:0] $end
$var reg 16 N# sub[15:0] $end
$var reg 16 O# andop[15:0] $end
$var reg 16 P# cmp[15:0] $end
$var reg 2 Q# selector_key[1:0] $end
$var reg 16 R# result[15:0] $end
$upscope $end
$upscope $end
$scope module acumulador $end
$var reg 1 S# clk $end
$var reg 16 T# input[15:0] $end
$var reg 1 U# wr_enable $end
$var reg 1 V# reset $end
$var reg 16 W# output[15:0] $end
$var reg 16 X# data[15:0] $end
$upscope $end
$upscope $end
$upscope $end
$upscope $end
$enddefinitions $end
#0
0!
1"
0#
1$
b0000000 %
bUUUUUUUUUUUUUUUUUUU &
b0000001 '
0(
b0000000 )
0*
b00 +
b0000 ,
b00 -
0.
0/
b00000000000 0
01
02
b0000000000000000 3
b0000000000000000000 4
15
06
07
08
09
0:
0;
1<
0=
0>
b0000001 ?
b0000000 @
b0000000 A
b0000000000000001 B
b0000000000000000 C
b0000000000000001 D
b0000000000000000 E
b0000000000000001 F
b0000000000000000 G
0H
b0000000000000001 I
0J
b0000000000000001 K
0L
1M
b0000000000000000 N
b0000000000000000 O
0P
b0000000 Q
bUUUUUUUUUUUUUUUUUUU R
b0000000 S
b0000001 T
0U
bUUUUUUUUUUUUUUUUUUU V
1W
1X
b0000000000000000000 Y
b0000000000000000000 Z
b0000000000000000000 [
1\
1]
0^
0_
0`
0a
0b
0c
0d
0e
b00 f
0g
0h
0i
0j
0k
0l
0m
b0000 n
b00 o
0p
1q
b00 r
b00 s
0t
1u
1v
1w
0x
0y
0z
0{
1|
1}
0!"
0""
0#"
0$"
1%"
1&"
0'"
0("
0)"
b00 *"
b0000 +"
0,"
b00 -"
0."
b00000000000 /"
00"
01"
12"
03"
04"
15"
06"
07"
b0000000000000000 8"
b0000000000000000 9"
b0000000000000000 :"
b0000000000000000 ;"
b0000000000000000 <"
b0000000000000000 ="
b0000000000000000 >"
b0000000000000000 ?"
b0000000000000000 @"
b0000000000000000 A"
0B"
b0000000000000000 C"
b0000000000000000 D"
b0000000000000000 E"
b0000000000000000 F"
b00 G"
b0000000000000000 H"
b0000000000000000 I"
b0000000000000000 J"
0K"
b0000000000000000 L"
b0000 M"
0N"
b0000000000000000 O"
0P"
1Q"
b0000000000000000 R"
b000000000 S"
b0000 T"
0U"
b000000000 V"
0W"
b0000000000000000 X"
0Y"
1Z"
b0000000000000000 ["
b0000000000000000 \"
0]"
b0000000000000000 ^"
0_"
1`"
b0000000000000000 a"
b0000000000000000 b"
0c"
b0000000000000000 d"
0e"
1f"
b0000000000000000 g"
b0000000000000000 h"
0i"
b0000000000000000 j"
0k"
1l"
b0000000000000000 m"
b0000000000000000 n"
0o"
b0000000000000000 p"
0q"
1r"
b0000000000000000 s"
b0000000000000000 t"
0u"
b0000000000000000 v"
0w"
1x"
b0000000000000000 y"
b0000000000000000 z"
0{"
b0000000000000000 |"
0}"
1!#
b0000000000000000 "#
b0000000000000000 ##
0$#
b0000000000000000 %#
0&#
1'#
b0000000000000000 (#
b0000000000000000 )#
0*#
b0000000000000000 +#
0,#
1-#
b0000000000000000 .#
b0000000000000000 /#
b0000 0#
b0000000000000000 1#
b0000000000000000 2#
b0000000000000000 3#
b0000000000000000 4#
b0000000000000000 5#
b0000000000000000 6#
b0000000000000000 7#
b0000000000000000 8#
b0000000000000000 9#
b0000000000000000 :#
0;#
b0000000000000000 <#
b0000000000000000 =#
b00 >#
0?#
0@#
0A#
0B#
1C#
b0000000000000000 D#
b0000000000000000 E#
b0000000000000000 F#
b0000000000000000 G#
b0000000000000000 H#
b00000000000000000 I#
b00000000000000000 J#
b0000000000000000 K#
b0000000000000000 L#
b0000000000000000 M#
b0000000000000000 N#
b0000000000000000 O#
b0000000000000000 P#
b00 Q#
b0000000000000000 R#
0S#
b0000000000000000 T#
0U#
1V#
b0000000000000000 W#
b0000000000000000 X#
#5000000
1!
0"
1#
0$
b0110001100000000101 &
bUUUUUUU )
bUU +
bUUUU ,
bUUUUUUUUUUU 0
bUUUUUUUUUUUUUUUUUUU 4
18
1;
0<
bUUUUUUU @
b000000000UUUUUUU C
b000000000UUUUUUU G
1J
0M
1P
b0110001100000000101 R
1U
b0110001100000000101 V
0X
bUUUUUUUUUUUUUUUUUUU Y
bUUUUUUUUUUUUUUUUUUU Z
bUUUUUUUUUUUUUUUUUUU [
0\
1`
1a
bUUUU n
b01 o
1p
0q
b01 r
b01 s
1t
0w
1x
1y
1z
0}
1#"
0&"
1)"
bUU *"
bUUUU +"
bUUUUUUUUUUU /"
02"
b00000UUUUUUUUUUU ?"
b00000UUUUUUUUUUU A"
b00000UUUUUUUUUUU E"
b00000UUUUUUUUUUU J"
bUUUU M"
1N"
0Q"
bUUUU T"
1W"
0Z"
1]"
0`"
1c"
0f"
1i"
0l"
1o"
0r"
1u"
0x"
1{"
0!#
1$#
0'#
1*#
0-#
bUUUU 0#
1;#
bUU >#
bUU Q#
1S#
0V#
#10000000
0!
0#
0;
0J
0P
0U
0`
0p
0t
0z
0#"
0)"
0N"
0W"
0]"
0c"
0i"
0o"
0u"
0{"
0$#
0*#
0;#
0S#
#15000000
1!
1#
b0011000 )
1*
b11 +
b0011 ,
1.
b00000000101 0
12
b0110001100000000101 4
1;
1=
b0011000 @
b0000000000011000 C
b0000000000011000 G
1J
1L
1P
1U
b0110001100000000101 Y
b0110001100000000101 Z
b0110001100000000101 [
1`
1e
1g
1j
b0110 n
b10 o
1p
b10 r
b10 s
1t
1z
1#"
1)"
b11 *"
b0011 +"
1,"
b00000000101 /"
10"
b0000000000000101 <"
b0000000000000101 ?"
b0000000000000101 A"
1B"
b0000000000000101 C"
b0000000000000101 E"
b0000000000000101 J"
b0011 M"
1N"
b0000000000000101 O"
1P"
b000001000 S"
b0011 T"
1U"
b000001000 V"
1W"
b0000000000000101 X"
1]"
b0000000000000101 ^"
1c"
b0000000000000101 d"
1i"
b0000000000000101 j"
1k"
1o"
b0000000000000101 p"
1u"
b0000000000000101 v"
1{"
b0000000000000101 |"
1$#
b0000000000000101 %#
1*#
b0000000000000101 +#
b0011 0#
1;#
b11 >#
b11 Q#
1S#
#20000000
0!
0#
0;
0J
0P
0U
0`
0p
0t
0z
0#"
0)"
0N"
0W"
0]"
0c"
0i"
0o"
0u"
0{"
0$#
0*#
0;#
0S#
#25000000
1!
1#
b0000001 %
b0000010 '
0*
02
16
1;
0=
b0000010 ?
b0000001 A
b0000000000000010 B
b0000000000000010 D
b0000000000000001 E
b0000000000000010 F
b0000000000000010 I
1J
b0000000000000010 K
0L
b0000000000000001 N
b0000000000000001 O
1P
b0000001 Q
b0000001 S
b0000010 T
1U
1^
1`
0e
0j
b00 o
1p
b00 r
b00 s
1t
1z
1{
1#"
1)"
00"
17"
b0000000000000101 9"
b0000000000000101 >"
b0000000000000101 F"
b0000000000000101 I"
b0000000000000101 L"
1N"
0P"
b0000000000000101 R"
b000000000 S"
0U"
b000000000 V"
1W"
1]"
1c"
1i"
0k"
b0000000000000101 m"
b0000000000000101 n"
1o"
1u"
1{"
1$#
1*#
b0000000000000101 4#
b0000000000000101 :#
1;#
b0000000000000101 <#
1@#
b0000000000000101 E#
b1111111111111011 F#
b00000000000000101 I#
b11111111111111011 J#
b0000000000000101 M#
b1111111111111011 N#
1S#
#30000000
0!
0#
0;
0J
0P
0U
0`
0p
0t
0z
0#"
0)"
0N"
0W"
0]"
0c"
0i"
0o"
0u"
0{"
0$#
0*#
0;#
0S#
#35000000
1!
1#
b0110010000000001000 &
19
1;
1J
1P
b0110010000000001000 R
1U
b0110010000000001000 V
1`
1b
b01 o
1p
b01 r
b01 s
1t
1z
1!"
1""
1#"
1)"
13"
1N"
1W"
1]"
1c"
1i"
1o"
1u"
1{"
1$#
1*#
1;#
1?#
b1111111111111010 F#
b0000000000000001 L#
b1111111111111010 N#
1S#
#40000000
0!
0#
0;
0J
0P
0U
0`
0p
0t
0z
0#"
0)"
0N"
0W"
0]"
0c"
0i"
0o"
0u"
0{"
0$#
0*#
0;#
0S#
#45000000
1!
1#
b0100000 )
1*
b0100 ,
b00000001000 0
12
b0110010000000001000 4
06
1;
1=
b0100000 @
b0000000000100000 C
b0000000000100000 G
1J
1L
1P
1U
b0110010000000001000 Y
b0110010000000001000 Z
b0110010000000001000 [
0^
1`
1e
1j
b10 o
1p
b10 r
b10 s
1t
1z
0{
1#"
1)"
b0100 +"
b00000001000 /"
10"
07"
b0000000000000000 9"
b0000000000001000 <"
b0000000000000000 >"
b0000000000001000 ?"
b0000000000001000 A"
b0000000000001000 C"
b0000000000001000 E"
b0000000000000000 F"
b0000000000000000 I"
b0000000000001000 J"
b0000000000000000 L"
b0100 M"
1N"
b0000000000001000 O"
1P"
b0000000000000000 R"
b000010000 S"
b0100 T"
1U"
b000010000 V"
1W"
b0000000000001000 X"
1]"
b0000000000001000 ^"
1c"
b0000000000001000 d"
1i"
b0000000000001000 j"
1o"
b0000000000001000 p"
1q"
1u"
b0000000000001000 v"
1{"
b0000000000001000 |"
1$#
b0000000000001000 %#
1*#
b0000000000001000 +#
b0100 0#
b0000000000000000 :#
1;#
b0000000000000000 <#
0@#
b0000000000000000 E#
b1111111111111111 F#
b00000000000000000 I#
b00000000000000000 J#
b0000000000000000 M#
b1111111111111111 N#
1S#
#50000000
0!
0#
0;
0J
0P
0U
0`
0p
0t
0z
0#"
0)"
0N"
0W"
0]"
0c"
0i"
0o"
0u"
0{"
0$#
0*#
0;#
0S#
#55000000
1!
1#
b0000010 %
b0000011 '
0*
02
16
09
1;
0=
b0000011 ?
b0000010 A
b0000000000000011 B
b0000000000000011 D
b0000000000000010 E
b0000000000000011 F
b0000000000000011 I
1J
b0000000000000011 K
0L
b0000000000000010 N
b0000000000000010 O
1P
b0000010 Q
b0000010 S
b0000011 T
1U
1^
1`
0b
0e
0j
b00 o
1p
b00 r
b00 s
1t
1z
1{
0!"
0""
1#"
1)"
00"
03"
17"
b0000000000001000 9"
b0000000000001000 >"
b0000000000001000 F"
b0000000000001000 I"
b0000000000001000 L"
1N"
0P"
b0000000000001000 R"
b000000000 S"
0U"
b000000000 V"
1W"
1]"
1c"
1i"
1o"
0q"
b0000000000001000 s"
b0000000000001000 t"
1u"
1{"
1$#
1*#
b0000000000001000 5#
b0000000000001000 :#
1;#
b0000000000001000 <#
0?#
1@#
b0000000000001000 E#
b1111111111111000 F#
b00000000000001000 I#
b11111111111111000 J#
b0000000000000000 L#
b0000000000001000 M#
b1111111111111000 N#
1S#
#60000000
0!
0#
0;
0J
0P
0U
0`
0p
0t
0z
0#"
0)"
0N"
0W"
0]"
0c"
0i"
0o"
0u"
0{"
0$#
0*#
0;#
0S#
#65000000
1!
1#
b1000001100000000000 &
19
1;
1J
1P
b1000001100000000000 R
1U
b1000001100000000000 V
1`
1b
b01 o
1p
b01 r
b01 s
1t
1z
1!"
1""
1#"
1)"
13"
1N"
1W"
1]"
1c"
1i"
1o"
1u"
1{"
1$#
1*#
1;#
1?#
b1111111111110111 F#
b0000000000000001 L#
b1111111111110111 N#
1S#
#70000000
0!
0#
0;
0J
0P
0U
0`
0p
0t
0z
0#"
0)"
0N"
0W"
0]"
0c"
0i"
0o"
0u"
0{"
0$#
0*#
0;#
0S#
#75000000
1!
1#
b0011000 )
1*
b00 +
b0011 ,
b10 -
0.
b00000000000 0
11
02
b1000001100000000000 4
05
1;
1=
b0011000 @
b0000000000011000 C
b0000000000011000 G
1J
1L
1P
1U
b1000001100000000000 Y
b1000001100000000000 Z
b1000001100000000000 [
0]
1`
1e
b10 f
0g
1i
0j
b1000 n
b10 o
1p
b10 r
b10 s
1t
0u
1z
1#"
1)"
b00 *"
b0011 +"
0,"
b10 -"
b00000000000 /"
00"
11"
05"
b0000000000000101 9"
b0000000000000101 :"
b0000000000000000 <"
b0000000000000101 ="
b0000000000000101 >"
b0000000000000000 ?"
b0000000000000000 A"
0B"
b0000000000000000 C"
b0000000000000101 D"
b0000000000000000 E"
b0000000000000101 F"
b10 G"
b0000000000000101 H"
b0000000000000101 I"
b0000000000000000 J"
b0000000000000101 L"
b0011 M"
1N"
b0000000000000000 O"
0P"
b0000000000000101 R"
b000000000 S"
b0011 T"
0U"
b000000000 V"
1W"
b0000000000000000 X"
1]"
b0000000000000000 ^"
1c"
b0000000000000000 d"
1i"
b0000000000000000 j"
0k"
1o"
b0000000000000000 p"
1u"
b0000000000000000 v"
1{"
b0000000000000000 |"
1$#
b0000000000000000 %#
1*#
b0000000000000000 +#
b0011 0#
b0000000000000101 :#
1;#
b0000000000000101 <#
b00 >#
0C#
b0000000000000101 D#
b0000000000000101 E#
b1111111111111010 F#
b0000000000000101 G#
b00000000000000101 I#
b11111111111111011 J#
b0000000000000101 M#
b1111111111111010 N#
b00 Q#
b0000000000000101 R#
1S#
b0000000000000101 T#
1U#
#80000000
0!
0#
0;
0J
0P
0U
0`
0p
0t
0z
0#"
0)"
0N"
0W"
0]"
0c"
0i"
0o"
0u"
0{"
0$#
0*#
0;#
0S#
#85000000
1!
1#
b0000011 %
b0000100 '
0*
01
b0000000000000101 3
06
08
1;
0=
b0000100 ?
b0000011 A
b0000000000000100 B
b0000000000000100 D
b0000000000000011 E
b0000000000000100 F
b0000000000000100 I
1J
b0000000000000100 K
0L
b0000000000000011 N
b0000000000000011 O
1P
b0000011 Q
b0000011 S
b0000100 T
1U
0^
1`
0a
0e
0i
b00 o
1p
b00 r
b00 s
1t
0x
0y
1z
0{
1#"
1)"
01"
07"
b0000000000000101 8"
b0000000000001010 :"
b0000000000000101 ;"
b0000000000000101 <"
b0000000000000101 @"
b0000000000000101 C"
b0000000000001010 D"
1N"
b0000000000000101 O"
1W"
b0000000000000101 X"
1]"
b0000000000000101 ^"
1c"
b0000000000000101 d"
1i"
b0000000000000101 j"
1o"
b0000000000000101 p"
1u"
b0000000000000101 v"
1{"
b0000000000000101 |"
1$#
b0000000000000101 %#
1*#
b0000000000000101 +#
1;#
b0000000000000101 =#
0@#
b0000000000001010 D#
b0000000000001010 E#
b1111111111111111 F#
b0000000000001010 G#
b0000000000000101 H#
b00000000000001010 I#
b00000000000000000 J#
b0000000000001010 M#
b1111111111111111 N#
b0000000000000101 O#
b0000000000000101 P#
b0000000000001010 R#
1S#
0U#
b0000000000000101 W#
b0000000000000101 X#
#90000000
0!
0#
0;
0J
0P
0U
0`
0p
0t
0z
0#"
0)"
0N"
0W"
0]"
0c"
0i"
0o"
0u"
0{"
0$#
0*#
0;#
0S#
#95000000
1!
1#
b0001010000000000000 &
09
1;
1J
1P
b0001010000000000000 R
1U
b0001010000000000000 V
1`
0b
b01 o
1p
b01 r
b01 s
1t
1z
0!"
0""
1#"
1)"
03"
1N"
1W"
1]"
1c"
1i"
1o"
1u"
1{"
1$#
1*#
1;#
0?#
b0000000000000000 F#
b0000000000000000 L#
b0000000000000000 N#
1S#
#100000000
0!
0#
0;
0J
0P
0U
0`
0p
0t
0z
0#"
0)"
0N"
0W"
0]"
0c"
0i"
0o"
0u"
0{"
0$#
0*#
0;#
0S#
#105000000
1!
1#
b0100000 )
1*
b0100 ,
b00 -
11
b0001010000000000000 4
16
1;
1=
b0100000 @
b0000000000100000 C
b0000000000100000 G
1J
1L
1P
1U
b0001010000000000000 Y
b0001010000000000000 Z
b0001010000000000000 [
1^
1`
1e
b00 f
1i
b0001 n
b10 o
1p
b10 r
b10 s
1t
1z
1{
1#"
1)"
b0100 +"
b00 -"
11"
17"
b0000000000001000 9"
b0000000000001101 :"
b0000000000001101 ="
b0000000000001000 >"
b0000000000001101 D"
b0000000000001000 F"
b00 G"
b0000000000001101 H"
b0000000000001000 I"
b0000000000001000 L"
b0100 M"
1N"
b0000000000001000 R"
b0100 T"
1W"
1]"
1c"
1i"
1o"
1u"
1{"
1$#
1*#
b0100 0#
b0000000000001000 :#
1;#
b0000000000001000 <#
1@#
b0000000000001101 D#
b0000000000001101 E#
b1111111111111101 F#
b0000000000001101 G#
b0000000000000000 H#
b00000000000001101 I#
b11111111111111101 J#
b0000000000001101 M#
b1111111111111101 N#
b0000000000000000 O#
b0000000000001101 R#
1S#
b0000000000001101 T#
1U#
#110000000
0!
0#
0;
0J
0P
0U
0`
0p
0t
0z
0#"
0)"
0N"
0W"
0]"
0c"
0i"
0o"
0u"
0{"
0$#
0*#
0;#
0S#
#115000000
1!
1#
b0000100 %
b0000101 '
0*
01
b0000000000001101 3
06
19
1;
0=
b0000101 ?
b0000100 A
b0000000000000101 B
b0000000000000101 D
b0000000000000100 E
b0000000000000101 F
b0000000000000101 I
1J
b0000000000000101 K
0L
b0000000000000100 N
b0000000000000100 O
1P
b0000100 Q
b0000100 S
b0000101 T
1U
0^
1`
1b
0e
0i
b00 o
1p
b00 r
b00 s
1t
1z
0{
1!"
1""
1#"
1)"
01"
13"
07"
b0000000000001101 8"
b0000000000010101 :"
b0000000000001101 ;"
b0000000000001101 <"
b0000000000010101 ="
b0000000000001101 @"
b0000000000001101 C"
b0000000000010101 D"
b0000000000010101 H"
1N"
b0000000000001101 O"
1W"
b0000000000001101 X"
1]"
b0000000000001101 ^"
1c"
b0000000000001101 d"
1i"
b0000000000001101 j"
1o"
b0000000000001101 p"
1u"
b0000000000001101 v"
1{"
b0000000000001101 |"
1$#
b0000000000001101 %#
1*#
b0000000000001101 +#
1;#
b0000000000001101 =#
1?#
0@#
b0000000000010101 D#
b0000000000010101 E#
b0000000000000100 F#
b0000000000010101 G#
b0000000000001000 H#
b00000000000010101 I#
b00000000000000101 J#
b0000000000000001 L#
b0000000000010101 M#
b0000000000000100 N#
b0000000000001000 O#
b0000000000001101 P#
b0000000000010101 R#
1S#
b0000000000010101 T#
0U#
b0000000000001101 W#
b0000000000001101 X#
#120000000
0!
0#
0;
0J
0P
0U
0`
0p
0t
0z
0#"
0)"
0N"
0W"
0]"
0c"
0i"
0o"
0u"
0{"
0$#
0*#
0;#
0S#
#125000000
1!
1#
b1010010100000000000 &
09
1;
1J
1P
b1010010100000000000 R
1U
b1010010100000000000 V
1`
0b
b01 o
1p
b01 r
b01 s
1t
1z
0!"
0""
1#"
1)"
03"
1N"
1W"
1]"
1c"
1i"
1o"
1u"
1{"
1$#
1*#
1;#
0?#
b0000000000000101 F#
b0000000000000000 L#
b0000000000000101 N#
1S#
#130000000
0!
0#
0;
0J
0P
0U
0`
0p
0t
0z
0#"
0)"
0N"
0W"
0]"
0c"
0i"
0o"
0u"
0{"
0$#
0*#
0;#
0S#
#135000000
1!
1#
b0101000 )
1*
b01 +
b0101 ,
01
12
b1010010100000000000 4
1;
1=
b0101000 @
b0000000000101000 C
b0000000000101000 G
1J
1L
1P
1U
b1010010100000000000 Y
b1010010100000000000 Z
b1010010100000000000 [
1`
1e
0i
1j
b1010 n
b10 o
1p
b10 r
b10 s
1t
1z
1#"
1)"
b01 *"
b0101 +"
10"
01"
b0000000000000000 9"
b0000000000001101 :"
b0000000000001101 ="
b0000000000000000 >"
b0000000000001101 D"
b0000000000000000 F"
b0000000000001101 H"
b0000000000000000 I"
b0000000000000000 L"
b0101 M"
1N"
1P"
b0000000000000000 R"
b000100000 S"
b0101 T"
1U"
b000100000 V"
1W"
1]"
1c"
1i"
1o"
1u"
1w"
1{"
1$#
1*#
b0101 0#
b0000000000000000 :#
1;#
b0000000000000000 <#
b01 >#
b0000000000001101 D#
b0000000000001101 E#
b0000000000001101 F#
b0000000000001101 G#
b0000000000000000 H#
b00000000000001101 I#
b00000000000001101 J#
b0000000000001101 M#
b0000000000001101 N#
b0000000000000000 O#
b01 Q#
b0000000000001101 R#
1S#
b0000000000001101 T#
0U#
#140000000
0!
0#
0;
0J
0P
0U
0`
0p
0t
0z
0#"
0)"
0N"
0W"
0]"
0c"
0i"
0o"
0u"
0{"
0$#
0*#
0;#
0S#
